BB_Contact,Blood_Type,BB_Website,Person_Name,State_name,Blood_Bank_name,Quantity_of_Blood
2147483647,A-,www.il-arc.com,Fletcher Flosi,Illinois,ARC,500
1664912226,AB+,www.ca-bcp.com,Stephaine Barfield,California,Blood Centers of the Pacific,1500
2147483647,B+,www.wy-ubs.com,Natalie Fern,Wyoming,UBS,750
2147483647,O+,www.la-lbc.com,James Butt,Louisiana,LifeShare Blood Centers.,1000
