<?xml version="1.0" standalone="no"?>
<!DOCTYPE svg PUBLIC "-//W3C//DTD SVG 1.1//EN" "http://www.w3.org/Graphics/SVG/1.1/DTD/svg11.dtd">
<svg xmlns="http://www.w3.org/2000/svg">
<metadata>Generated by Fontastic.me</metadata>
<defs>
<font id="mobile-wms" horiz-adv-x="512">
<font-face font-family="mobile-wms" units-per-em="512" ascent="480" descent="-32"/>
<missing-glyph horiz-adv-x="512" />

<glyph unicode="&#97;" d="M201 101c0-1 0-3 0-6 1-3 1-6 1-8-1-2-1-4-1-6-1-3-2-5-3-6-2-1-4-2-6-2l-91 0c-23 0-42 8-59 24-16 16-24 36-24 58l0 202c0 22 8 42 24 58 17 16 36 24 59 24l91 0c2 0 5-1 6-3 2-2 3-4 3-6 0-1 0-3 0-6 1-3 1-6 1-8-1-2-1-4-1-6-1-3-2-5-3-6-2-1-4-2-6-2l-91 0c-13 0-24-4-33-13-9-9-13-20-13-32l0-202c0-12 4-23 13-32 9-9 20-13 33-13l89 0c0 0 1 0 3-1 2 0 3 0 3 0 0-1 1-1 3-2 1-1 2-2 2-3-1-1 0-2 0-3z m265 155c0-5-2-9-5-13l-156-155c-3-4-7-6-12-6-5 0-10 2-13 6-4 3-6 8-6 13l0 82-128 0c-5 0-9 2-13 5-3 4-5 8-5 13l0 110c0 5 2 9 5 13 4 3 8 5 13 5l128 0 0 82c0 5 2 10 6 13 3 4 8 6 13 6 5 0 9-2 12-6l156-155c3-4 5-8 5-13z"/>
<glyph unicode="&#98;" d="M421 246l0-91c0-22-8-42-25-58-16-16-35-24-58-24l-237 0c-23 0-42 8-59 24-16 16-24 36-24 58l0 238c0 23 8 42 24 58 17 16 36 24 59 24l237 0c12 0 23-2 34-7 3-1 4-3 5-6 0-4 0-6-3-9l-14-14c-2-1-4-2-6-2-1 0-2 0-3 0-4 1-9 2-13 2l-237 0c-13 0-24-5-33-14-9-9-13-19-13-32l0-238c0-12 4-23 13-32 9-9 20-13 33-13l237 0c13 0 24 4 33 13 9 9 13 20 13 32l0 73c0 2 1 5 3 6l18 19c2 1 4 2 6 2 2 0 3 0 4 0 4-2 6-5 6-9z m66 140l-233-233c-5-4-10-6-16-6-7 0-12 2-17 6l-122 123c-5 5-7 10-7 17 0 6 2 11 7 16l31 31c5 5 10 7 16 7 7 0 12-2 17-7l75-75 185 185c4 5 10 7 16 7 6 0 12-2 16-7l32-31c4-5 6-10 6-17 0-6-2-11-6-16z"/>
<glyph unicode="&#99;" d="M329 256c0 20-7 37-21 52-15 14-32 21-52 21-20 0-37-7-52-21-14-15-21-32-21-52 0-20 7-37 21-52 15-14 32-21 52-21 20 0 37 7 52 21 14 15 21 32 21 52z m146 31l0-63c0-3 0-5-2-7-1-2-3-3-6-4l-52-8c-4-10-8-19-12-26 7-9 17-22 31-39 2-2 3-5 3-7 0-3-1-5-3-7-5-7-14-17-28-31-14-13-23-20-27-20-2 0-5 1-7 3l-40 31c-8-5-17-8-26-11-3-26-6-44-8-53-1-6-5-8-10-8l-64 0c-2 0-5 0-7 2-2 2-3 4-3 6l-8 53c-9 3-18 6-26 10l-40-30c-2-2-4-3-7-3-3 0-5 1-7 3-24 22-40 38-47 48-2 2-2 4-2 7 0 2 0 4 2 6 3 4 8 11 14 19 7 9 12 16 16 21-5 9-9 19-12 28l-52 8c-3 0-5 1-6 3-2 2-2 4-2 7l0 63c0 3 0 5 2 7 1 2 3 3 5 4l53 8c3 8 7 17 12 26-8 11-18 24-31 39-2 3-3 5-3 7 0 2 1 4 3 7 5 7 14 17 28 30 14 14 23 21 27 21 2 0 5-1 7-3l40-31c8 5 17 8 26 11 3 26 6 44 8 53 1 6 5 8 10 8l64 0c2 0 5 0 7-2 2-2 3-4 3-6l8-53c9-3 18-6 26-10l40 30c2 2 4 3 7 3 3 0 5-1 7-3 25-23 41-39 47-49 2-1 2-3 2-6 0-2 0-4-2-6-3-4-8-11-14-19-7-9-12-16-16-21 5-9 9-18 12-28l52-8c3 0 5-1 6-3 2-2 2-4 2-7z"/>
<glyph unicode="&#100;" d="M457 111c0-23-7-41-21-55-14-13-32-19-55-19l-250 0c-23 0-41 6-55 19-14 14-21 32-21 55 0 10 0 20 1 29 1 10 2 20 4 31 2 11 4 22 7 31 3 10 8 19 13 28 5 9 11 17 17 23 7 7 15 12 25 16 9 3 20 5 32 5 1 0 5-2 12-6 6-4 13-9 21-14 8-5 18-9 31-13 13-4 25-6 38-6 13 0 25 2 38 6 13 4 23 8 31 13 8 5 15 10 21 14 7 4 11 6 12 6 12 0 23-2 32-5 10-4 18-9 25-16 6-6 12-14 17-23 5-9 10-18 13-28 3-9 5-20 7-31 2-11 3-21 4-31 1-9 1-19 1-29z m-91 255c0-31-11-56-32-78-22-21-48-32-78-32-30 0-56 11-78 32-21 22-32 47-32 78 0 30 11 56 32 77 22 22 48 32 78 32 30 0 56-10 78-32 21-21 32-47 32-77z"/>
<glyph unicode="&#110;" d="M348 457l0-51c0-34 28-62 61-62l52 0z m-237 0c-33 0-61-28-61-62l0-287c0-34 28-62 61-62l288 0c34 0 62 28 62 62l0 205-49 0c-63 0-95 27-95 96l0 48z m31-267l226 0c6 0 11-5 11-10l0-21c0-5-5-10-11-10l-226 0c-5 0-10 5-10 10l0 21c0 5 5 10 10 10z m0 72l226 0c6 0 11-5 11-10l0-21c0-6-5-10-11-10l-226 0c-5 0-10 4-10 10l0 21c0 5 5 10 10 10z m0 72l144 0c6 0 10-5 10-10l0-21c0-6-4-10-10-10l-144 0c-5 0-10 4-10 10l0 21c0 5 5 10 10 10z"/>
<glyph unicode="&#111;" d="M421 229l0-138c0-5-2-9-6-12-3-4-8-6-13-6l-109 0 0 110-74 0 0-110-109 0c-5 0-10 2-13 6-4 3-6 7-6 12l0 138c0 0 0 0 1 0 0 1 0 1 0 1l164 136 164-136c0 0 1-1 1-1z m63 19l-17-21c-2-2-4-3-6-3l-1 0c-3 0-5 1-6 2l-198 165-198-165c-2-2-4-2-7-2-2 0-4 1-6 3l-17 21c-2 2-2 4-2 7 0 3 1 5 3 6l205 171c6 5 14 8 22 8 8 0 16-3 22-8l69-58 0 56c0 2 1 5 3 6 2 2 4 3 7 3l54 0c3 0 5-1 7-3 2-1 3-4 3-6l0-117 62-52c2-1 3-3 3-6 0-3 0-5-2-7z"/>
<glyph unicode="&#101;" d="M276 300c12-6 25-8 40-8 0 0 1 0 2 0l0 0c12 0 22-10 22-22l0-1 54 0 0 121-118 0z m-51 113c27-7 54 10 60 37 7 27-10 54-37 61-28 6-54-11-61-38-6-27 11-54 38-60z m-19-112c-17 23-23 45-26 53l0 1c-2 12 5 24 17 27 2 0 3 0 5 0 10 0 19-7 22-17l0 0 0-1c0-1 1-3 2-5 1-4 3-10 7-17 1-1 1-2 2-3 0 2 1 5 2 7 6 22-2 49-21 54-19 5-47-6-58-39-16-45-19-74-13-124 3-16 10-26 19-31 3-8 9-25 9-49 0-29-9-68-47-111-10-12-9-29 2-39 6-5 13-8 19-8 8 0 15 4 21 10 41 46 57 93 60 132 11-23 19-54 19-98 0-5 0-9 0-14 0-16 12-29 27-29 0 0 1 0 1 0 15 0 28 12 28 27 0 5 1 10 1 16 0 73-22 124-45 155-12 17-24 28-34 35-2 15-1 31 1 47-8 7-14 14-20 21z m130-32c0 10-8 18-18 18-1 0-2 0-2 0-20 0-36 5-48 12-19 10-31 27-38 41-4 7-7 13-8 18-1 2-2 4-2 5 0 0 0 1-1 1 0 0 0 0 0 0-2 10-11 16-21 13-10-2-16-12-13-21 0-2 6-26 25-52 10-13 23-26 40-36 18-10 40-17 66-17l0 0c0 0 1 0 2 0 10 0 18 8 18 18z"/>
<glyph unicode="&#102;" d="M421 72l44 71-44 70 47 0 44-70-44-71z m-421 31l0-49c0-6 5-11 12-11l26 0c4 20 21 36 43 36 22 0 40-15 43-36l5 0c6 0 11 5 11 11l0 129c0 6-5 11-11 11l-75 0c-7 0-14-4-17-10l-32-59c-2-6-5-16-5-22z m20 25l27 51c1 2 5 4 7 4l43 0 0-55-77 0z m25-92c0-20 16-36 36-36 20 0 36 16 36 36 0 20-16 36-36 36-20 0-36-16-36-36z m274 0c0-20 16-36 36-36 20 0 36 16 36 36 0 20-16 36-36 36-20 0-36-16-36-36z m85 207l-247 0c-4 0-7-3-7-8l0-184c0-5 3-8 7-8l155 0c3 21 21 37 43 37 21 0 39-16 43-37l6 0c4 0 7 3 7 8l0 184c0 5-3 8-7 8z m-115-165c-3-3-6-4-10-4-3 0-7 1-9 4-3 2-5 6-5 10 0 4 2 7 4 10 3 2 6 4 10 4 4 0 8-2 10-4 3-3 4-6 4-10 0-4-1-8-4-10z m34 85c-2-4-4-7-7-10-3-3-8-8-16-15-2-2-3-3-5-5-1-1-2-3-3-4 0-1-1-2-1-3-1-2-1-4-2-7-1-6-4-9-11-9-3 0-6 1-7 3-3 2-4 5-4 9 0 5 1 10 3 13 1 4 3 7 6 10 3 3 6 6 10 10 4 4 7 6 9 8 2 2 3 4 4 6 1 2 2 5 2 7 0 5-2 9-6 13-3 3-8 5-14 5-6 0-11-2-14-5-4-4-6-9-9-15-2-7-6-11-11-11-4 0-7 1-9 4-2 2-4 5-4 8 0 6 2 11 6 17 4 6 9 11 16 15 7 4 16 6 25 6 9 0 17-1 24-5 7-3 12-7 16-13 4-6 5-12 5-18 0-6 0-10-3-14z m74-110c-1-9 1-14 7-16 32-11 77-29 99-37 6-2 10 5 9 14-1 6-4 8-7 9-17 6-57 22-91 34 0 0-5 1-8 3-2 0-6 0-8-3z"/>
<glyph unicode="&#103;" d="M378 512l-243 0 0-242 243 0z m-98-182c0-13-4-20-13-20-4 0-7 2-10 4-2 3-3 7-3 12l0 87c-17-12-28-18-33-18-3 0-5 1-8 3-2 2-3 5-3 7 0 4 1 6 3 8 2 1 6 3 11 6 8 3 14 7 19 11 4 4 8 9 12 14 4 4 6 8 7 9 1 1 3 2 6 2 4 0 7-2 8-4 3-3 3-6 3-11l0-110 1 0z m-280-330l243 0 0 242-243 0z m139 162c-2 4-5 6-8 8-4 2-7 2-11 2-9 0-15-3-20-11-1-1-2-3-4-8-1-4-3-7-5-9-2-3-5-4-8-4-3 0-6 1-8 4-2 2-3 4-3 8 0 5 1 9 3 14 2 5 5 9 9 13 4 4 9 7 15 10 6 2 13 3 21 3 10 0 18-1 25-5 5-2 9-4 12-8 3-4 6-8 8-13 2-4 3-9 3-14 0-8-2-16-6-22-4-7-8-12-13-16-4-3-10-9-20-17-10-8-17-14-20-18-2-2-4-4-5-7l50 0c5 0 9-1 12-3 2-2 4-5 4-8 0-3-1-6-4-8-2-2-5-3-9-3l-70 0c-5 0-9 1-12 4-2 3-4 6-4 9 0 3 1 6 3 10 2 3 3 6 6 9 8 8 16 16 23 22 6 7 11 11 14 13 6 4 10 7 13 11 4 4 7 8 8 11 2 4 3 8 3 12 1 4 0 8-2 11z m130 80l0-242 243 0 0 242z m165-160c-2-6-6-11-10-15-5-4-10-7-16-10-7-2-14-3-21-3-8 0-15 1-21 4-6 2-11 6-15 10-4 4-7 8-9 13-2 4-3 8-3 11 0 3 1 6 4 9 2 2 5 3 9 3 2 0 4-1 5-1 2-1 3-3 3-4 4-9 7-16 11-20 4-4 9-7 16-7 4 0 8 2 12 3 3 2 6 5 9 9 2 4 3 9 3 14 0 7-2 13-6 17-4 5-10 7-17 7-1 0-3 0-6-1-3 0-4 0-5 0-4 0-6 1-8 3-2 1-3 4-3 7 0 3 1 6 3 7 3 2 6 3 11 3l3 0c6 0 11 2 16 5 4 4 6 9 6 15 0 5-2 9-5 13-4 4-8 5-14 5-4 0-7 0-10-1-2-1-4-3-6-5-1-1-2-4-4-6-1-3-2-6-4-8 0-2-1-3-3-4-2 0-4-1-6-1-2 0-5 1-7 4-2 2-3 4-3 8 0 3 1 7 3 10 2 4 5 8 9 11 3 3 8 6 14 8 6 2 12 3 19 3 7 0 12-1 18-3 5-1 9-4 13-7 4-3 7-7 9-11 1-4 3-9 3-14 0-6-2-12-5-16-2-5-7-9-12-14 5-2 10-5 13-9 3-3 6-7 8-11 1-5 2-9 2-14 1-6 0-12-3-17z"/>
<glyph unicode="&#104;" d="M156 62l62 0 0-62-62 0z m79 0l62 0 0-62-62 0z m-79 80l62 0 0-62-62 0z m80-1l61 0 0-62-61 0z m79-79l62 0 0-62-62 0z m-313 124c-4 14 3 30 15 34l241 110 239-105c11-5 18-20 14-34-4-14-17-22-29-17l-224 100-227-104c-2-1-5-2-7-2-10 0-18 7-22 18z m255 72l-211-96 0-162 91 0 0 168 259 0 0-168 90 0 0 158z"/>
<glyph unicode="&#105;" d="M86 244c-11 9-22 18-33 26-11 10-23 20-35 30-5 4-10 8-15 13-2 2-4 6-3 8 1 3 5 7 8 8 34 7 68 13 103 20 29 6 57 11 86 17 7 2 10-3 14-6 20-17 40-33 60-50 3-3 7-5 10-8 3-2 5-2 7 0 19 12 38 24 57 36 5 3 10 4 16 2 29-8 58-15 88-23 15-4 30-8 44-12 5-1 8-3 9-8 0-4-1-8-6-10-21-14-42-28-64-43 10-8 20-15 30-23 15-13 31-24 46-37 3-2 4-6 4-9 0-4-3-7-8-8-19-5-38-9-57-14-7-1-14-3-22-5 0-1 0-3 0-5 0-29 0-58 0-87 0-9-2-11-10-13-35-9-70-17-105-25-26-6-50-12-75-18-2 0-4 0-6 1-40 13-80 26-120 39-17 5-19 2-19 25 1 19 0 39 1 58 0 4-2 6-5 7-21 8-42 16-63 24-7 3-9 10-3 16 11 13 23 26 34 39 10 11 21 22 32 35z m156-222c24 6 48 11 72 16 29 7 57 14 86 21 4 1 5 2 5 6 0 25 0 49 0 73 0 2 0 3 0 5-24-6-47-11-70-16-9-2-17-7-27 1-15 14-31 26-47 38-6 5-13 10-19 15 0-54 0-106 0-159z m-210 292c-1 0-1-1-2-1 2-1 3-1 4-2 22-18 43-36 64-53 2-1 6-2 9-2 6 1 13 3 20 5 42 10 85 19 127 29 2 1 5 2 7 3-6 5-11 9-16 14-14 11-28 22-41 34-5 4-9 7-16 4-2-1-4-1-7-2-23-4-47-9-71-13-26-5-52-11-78-16z m449-133c-23 18-44 34-66 51-1 1-4 2-6 2-6-2-13-3-19-5-34-8-68-16-101-24-12-2-23-5-34-8 0-1 0-1 0-1 21-17 42-33 63-49 2-2 6-3 8-2 8 1 16 3 24 5 33 8 65 15 97 23 11 2 22 5 34 8z m-439-14c2-1 2-1 2-1 34-13 68-26 102-40 2 0 4 1 5 2 8 8 15 16 22 24 9 10 19 19 27 29 5 5 9 11 14 16-1 0-2 1-2 1-36 12-71 23-106 34-2 1-4 0-6-1-4-5-9-10-13-15-10-11-20-21-30-32-5-6-10-11-15-17z m68-47c0-20 0-39 0-58 0-1 2-3 4-4 21-7 43-14 64-21 14-5 29-9 44-14 0 51 0 102 0 152-1 0-1 0-2 1-2-3-4-6-6-8-18-20-36-40-54-59-4-5-9-5-14-3-12 5-24 9-36 14z m196 171c2-1 2-2 3-2 34-11 67-22 101-33 2 0 5 0 6 1 9 6 18 12 26 17 9 6 17 12 26 17-1 1-1 1-1 1-36 10-72 20-108 29-2 1-5 0-7-1-15-10-30-19-46-29z"/>
<glyph unicode="&#106;" d="M341 254c37 17 53 60 37 97-17 37-60 53-97 37-37-17-53-60-37-97 17-37 60-53 97-37z m162-254c6 10 9 25 9 42-6 72-19 113-53 173-25 44-68 51-94 39-26-12-30-53-15-83 2-4 4-10 7-15 2 5 3 10 4 15 2 10 3 20 3 25 1 3 1 5 1 8 0 0 0 1 0 1-1 16 10 31 26 34 1 1 3 1 4 1 9 0 17-3 24-9 6-5 10-13 11-22l0-1c0-12 0-45-15-82-7-18-17-35-28-49 6-22 12-45 13-67 1-4-1-7 7-10z m-80 208c-1 15-13 26-27 25-14-1-26-13-25-27 0 0 0-1 0-1 0 0 0-1 0-2 0-1 0-4 0-7 0-7-1-16-4-27-1-7-4-14-7-22-6-15-15-31-29-44-13-12-31-23-58-28 0 5 0 11 0 17 0 1 0 2 0 3 5 1 10 2 14 3 12 3 24 6 37 9 2 1 5 3 5 6 0 2-1 4-3 5-10 8-20 16-30 24-6 5-12 10-19 15 14 9 28 18 41 27 3 2 4 4 4 7-1 3-3 4-6 5-9 2-19 5-28 8-19 4-38 9-56 15-4 1-7 0-10-2-13-8-25-15-37-23-2-1-3-1-5 0-1 2-4 4-6 6-13 10-26 21-38 31-3 2-5 5-9 4-19-3-37-7-56-11-22-4-44-8-66-13-2 0-4-2-5-4 0-2 1-4 2-6 3-3 7-6 10-8 7-7 15-13 23-19 7-6 13-11 20-17-7-8-13-16-20-23-8-8-15-16-23-24-3-4-2-9 3-11 13-5 27-10 40-16 2 0 3-2 3-4 0-12 0-25 0-37 0-15 1-13 12-16 25-9 51-17 77-25 1-1 2-1 3-1 17 4 33 8 49 11 19 5 38 9 57 14 1 0 2-1 3-1 5-2 10-3 15-2 2 0 5 1 7 1 0 0 0 0 1 0 36 7 64 22 85 42 6 6 12 13 17 19 11 15 19 30 25 44 16 42 14 78 14 80z m-196-2c1 0 3 1 4 0 23-6 46-12 69-18 0 0 0 0 1-1-6-3-11-7-17-11-5-3-11-7-16-10-2-1-3-2-4-1-22 7-44 14-65 21-1 0-1 0-2 1 10 6 20 12 30 19z m-42-74c22 5 44 10 65 15 5 1 9 2 13 3 1 1 3 0 4-1 14-10 27-21 42-32-8-2-15-4-22-6-21-5-41-9-62-14-5-1-10-3-16-4-1 0-3 1-5 2-13 10-27 21-40 31 0 0 0 0 0 1 7 2 14 3 21 5z m-156-25c0 0-1 0-1 1 3 3 6 7 9 10 6 7 13 14 19 21 3 3 6 6 9 9 1 1 2 2 3 1 23-7 46-14 68-22 1 0 1 0 2-1-3-3-6-6-9-9-6-7-12-13-18-20-4-5-9-10-14-15 0-1-2-1-3-1-22 9-43 17-65 26z m114-92c-10 3-19 6-29 9-13 5-27 9-40 14-1 0-3 1-3 3 0 12 0 24 0 36 8-3 15-6 23-9 3-1 6-1 9 2 11 13 23 26 34 38 2 2 3 4 5 5 0 0 0 0 0 0 1-33 1-65 1-98z m-61 153c-4-1-9-2-13-3-2 0-4 0-5 1-14 11-28 23-42 34 0 0-1 1-2 1 0 0 1 0 1 1 17 3 33 6 51 10 15 3 30 6 45 9 2 0 3 0 5 0 4 2 7 0 10-2 8-8 17-15 26-22 3-3 7-6 10-9-1 0-3-1-4-1-27-7-55-13-82-19z m73-154c0 34 0 68 0 103 4-3 8-6 12-9 11-8 22-16 31-25 6-5 12-2 17-1 15 3 30 7 45 10 0 0 0-2 0-2 0-6 0-12 0-18-8-3-14-11-16-19 0-3-1-7 0-10 0-2 1-5 2-7-15-4-29-7-44-11-15-3-31-7-47-11z"/>
<glyph unicode="&#107;" d="M486 66c0 5 0 11 0 17 2 0 4 0 6 0 6 0 10 4 10 9 0 5-4 8-10 8 0 0 0 0 0 0-2 0-4 0-6 0 0 0 0 0 0 1 0 0 0 0 0 0 0 21 0 59 0 83 2 0 4 0 6 0 6 0 10 4 9 9 0 5-4 8-9 9 0 0 0 0 0 0-2 0-235 0-235 0 0 0-33 17-44 22-5 3-10 2-13-2-2-5 0-10 5-13 5-3 19-10 40-21 0 0-1-63-1-86 0-1 0-1 0-1 0-2 0-8 0-10 0-9 0-17 0-26-14-4-23-17-23-32 0-18 15-33 33-33 19 0 34 15 34 33 0 16-12 30-27 33 0 5 0 11 0 16 21 1 187 1 208 0 0-5 0-11 0-17-14-4-24-17-24-32 0-18 15-33 33-33 19 0 34 15 34 33 0 16-11 29-26 33z m-121 34c-34 0-71 1-103 1 0 0 0 0 0 0 0 12 0 24 0 36 0 8 0 36 0 46 21 1 41 1 62 1 44 0 97 0 141 0 1 0 2 0 4 0 0-9 0-39 0-47 0-12 0-24 0-36-33 0-70-1-104-1z m39 68l55 0 0-55-55 0z m-67-2l55 0 0-55-55 0z m-67 0l55 0 0-55-55 0z m134 100l55 0 0-55-55 0z m-67-1l55 0 0-55-55 0z m-67 0l55 0 0-55-55 0z m-157 61c23-5 46 9 51 32 6 23-9 46-32 51-22 6-46-9-51-31-5-23 9-46 32-52z m-6-152c0 2 0 4 0 7-1 12-1 26 0 39-8 7-16 15-21 24-13 20-17 39-18 46l0 0c-1 5 0 11 3 15 4 4 8 6 13 7 1 0 2 0 3 0 9 0 17-7 18-16 0-1 1-1 1-1 0-1 0-3 1-4 0-3 2-9 4-14 2-3 3-5 5-8 0 3 1 6 1 9 6 19-1 42-17 46-17 4-40-5-50-33-13-38-16-63-11-106 2-9 6-16 10-21 1-5 2-14 2-24 0-13-2-29-8-46-6-17-17-36-36-53-9-9-10-24 0-34 4-4 11-7 17-7 6 0 12 2 16 6 24 23 39 48 47 71 1 2 1 4 2 5-1-14-4-31-11-50-4-13 2-26 15-31 12-4 26 2 30 15 9 26 13 49 13 70 0 37-12 65-26 83 0 1-2 3-3 5z m84 48c-2 6-8 10-14 9-1 0-2 0-4 0-16 0-28 4-37 10-10 6-17 14-22 22-2 4-5 8-6 12-3 6-5 11-5 15-1 1-1 3-1 4 0 0 0 1 0 1 0 0 0 0 0 0-2 8-9 14-18 13-8-1-14-9-12-17 0-1 3-22 17-44 5-8 11-16 19-23 4-3 8-6 12-9 14-8 32-14 54-14l0 0c1 0 3 0 4 0 3 0 6 1 8 3 4 3 7 7 7 13-1 2-1 3-2 5z"/>
<glyph unicode="&#108;" d="M422 444c14-44 27-88 41-132-44-14-87-27-131-41-14 44-28 87-42 131 44 14 88 28 132 42z m49-147c14-44 27-88 41-132-44-13-87-27-131-41-14 44-28 87-42 132 44 13 88 27 132 41z m-114-200c13 3 24 7 36 10 16 5 33 10 49 14 8 3 15-1 17-8 2-7-2-13-10-15 0 0 0-1 0-1-32-9-64-18-95-27-9-3-15 1-18 11-17 58-34 115-51 172-11 40-23 79-34 119-4 10 3 19 13 17 6-1 9-6 11-12 9-31 18-62 27-93 18-61 36-121 53-182 1-1 2-3 2-5z m-302 10c-30 0-54-24-54-53 0-30 24-54 54-54 29 0 53 24 54 53 0 30-24 54-54 54z m201 0c-30 1-54-24-54-54 0-29 24-53 53-53 30 0 54 24 54 54 0 29-24 53-53 53z m-109 135c-4 3-7 7-10 11-5 9-7 17-8 20l0 0c0 3 1 5 2 6 1 2 3 3 5 4 1 0 1 0 1 0 5 0 8-3 9-7 0-1 0-1 0-1 0 0 0-1 0-2 0-1 1-4 2-6 1-1 1-2 2-3 0 1 0 2 1 4 2 8-1 18-8 20-7 2-18-2-22-15-4-13-6-22-5-34 10-2 20-3 29-5 1-1 1-1 1-1 0 3 0 6 1 9z m141-86c-17 60-35 121-53 181-1 4-4 8-7 11-7 7-16 11-25 13-41 12-82 12-123 11-8 0-13-6-12-14 0-40 1-80 2-120 0-4-1-6-5-7-19-6-33-18-43-35-2-3-3-6-3-9 0-15 0-30 1-45 0-8 0-16 1-24 1 0 2 0 2 0 36 16 69 7 92-25 1-1 4-2 6-2 22 0 45 0 67 0 4 0 6 1 8 4 12 17 29 28 51 30 14 2 28 0 43-6 0 12 1 25-2 37z m-54 8c-19 7-38 15-58 23-8 3-12 9-13 18 0 2 0 5-1 8-1 10-7 17-16 20 0 0 0 0-1 0-9 3-19 4-29 5-1 0-1 1-2 1-6 1-13 1-20 2-2 36-3 71-5 108 6 0 10 0 14-1 30 0 60-2 89-9 19-5 19-5 24-23 15-53 31-105 46-157 0-2 1-4 2-7-11 4-20 8-30 12z m-85 125c10-2 20 4 23 14 2 10-4 20-14 23-10 2-20-4-23-14-2-11 4-21 14-23z m34-46c0 3-3 4-6 4 0 0-1 0-1 0-8 0-13 2-17 5-4 2-7 6-9 9-2 2-3 4-3 5-1 3-2 5-3 7 0 1 0 1 0 2 0 0 0 0 0 0-1 4-4 6-8 6-3-1-6-4-5-8 0 0 1-9 7-19 2-3 5-7 9-10 1-1 3-2 5-4 6-3 14-6 23-6 0 0 0 0 1 0 0 0 1 0 2 0 1 0 2 1 3 1 2 1 3 4 3 6 0 1 0 2-1 2z"/>
<glyph unicode="&#109;" d="M421 72l44 71-44 70 47 0 44-70-44-71z m-421 31l0-49c0-6 5-11 12-11l26 0c4 20 21 36 43 36 22 0 40-15 43-36l5 0c6 0 11 5 11 11l0 129c0 6-5 11-11 11l-75 0c-7 0-14-4-17-10l-32-59c-2-6-5-16-5-22z m20 25l27 51c1 2 5 4 7 4l43 0 0-55-77 0z m25-92c0-20 16-36 36-36 20 0 36 16 36 36 0 20-16 36-36 36-20 0-36-16-36-36z m274 0c0-20 16-36 36-36 20 0 36 16 36 36 0 20-16 36-36 36-20 0-36-16-36-36z m85 207l-247 0c-4 0-7-3-7-8l0-184c0-5 3-8 7-8l155 0c3 21 21 37 43 37 21 0 39-16 43-37l6 0c4 0 7 3 7 8l0 184c0 5-3 8-7 8z m-7-190c-1-9 1-14 7-16 32-11 77-29 99-37 6-2 10 5 9 14-1 6-4 8-7 9-17 6-57 22-91 34 0 0-5 1-8 3-2 0-6 0-8-3z"/>
<glyph unicode="&#112;" d="M475 256l0-37c0-10-3-18-9-25-6-8-14-11-24-11l-201 0 84-84c7-7 10-16 10-26 0-10-3-19-10-26l-22-21c-7-7-15-11-26-11-9 0-18 4-26 11l-186 186c-7 7-10 16-10 26 0 10 3 18 10 26l186 185c8 8 16 11 26 11 10 0 19-3 26-11l22-21c7-7 10-16 10-26 0-10-3-18-10-26l-84-83 201 0c10 0 18-4 24-11 6-7 9-16 9-26z"/>
<glyph unicode="&#113;" d="M183 293l146 0 0 54c0 21-7 38-21 52-15 14-32 22-52 22-20 0-37-8-52-22-14-14-21-31-21-52z m238-28l0-164c0-8-3-15-8-20-6-5-12-8-20-8l-274 0c-8 0-14 3-20 8-5 5-8 12-8 20l0 164c0 8 3 14 8 20 6 5 12 8 20 8l9 0 0 54c0 35 13 66 38 91 25 25 55 37 90 37 35 0 65-12 90-37 25-25 38-56 38-91l0-54 9 0c8 0 14-3 20-8 5-6 8-12 8-20z"/>
</font></defs></svg>
