"performance_id","venue_id","name","capacity","OVERSOLD"
"1","1","AMD","700","164"
"2","1","AMD","700","67"
"3","1","AMD","700","120"
"4","1","AMD","700","114"
"5","1","AMD","700","116"
"45","1","AMD","700","181"
"46","1","AMD","700","110"
"69","1","AMD","700","142"
"81","1","AMD","700","105"
"88","1","AMD","700","85"
"89","1","AMD","700","138"
"105","1","AMD","700","119"
"117","1","AMD","700","108"
"132","1","AMD","700","117"
