"MONTH","MONTHNAME","REVENUE"
"1","January","264510"
"2","February","226199"
"3","March","247469"
"4","April","254352"
"5","May","281448"
"6","June","258480"
"7","July","260668"
"8","August","263922"
"9","September","127317"
