date,name,ticketnum
2011-01-01 06:43:08,Fa ,TA1819205
2011-01-01 06:43:08,Fa ,TA7546875
2011-01-01 06:43:08,Fa ,TA3077529
2011-01-01 06:43:08,Fa ,TA7474056
2011-01-01 06:43:08,Fa ,TA7976370
2011-01-01 06:43:08,Fa ,TA4962186
2011-01-01 06:43:08,Fa ,TA3208497
2011-01-01 06:43:08,Fa ,TA2367443
2011-01-01 06:43:08,Fa ,TA9951929
2011-01-01 06:43:08,Fa ,TA3124362
2011-01-01 06:43:08,Fa ,TA5431702
2011-01-01 07:13:51,Fel Dow ,TA6006149
2011-01-01 07:13:51,Fel Dow ,TA7320094
2011-01-01 07:13:51,Fel Dow ,TA9252877
2011-01-01 07:13:51,Fel Dow ,TA9445152
