band_name,performance_start_time,venue_name
The Antlers,2011-09-17 12:30:00,AMD
Young The Giant,2011-09-17 14:00:00,AMD
Iron & Wine,2011-09-17 16:00:00,AMD
Cut Copy,2011-09-17 18:00:00,AMD
My Morning Jacket,2011-09-17 20:00:00,AMD
Asleep at the Wheel,2011-09-16 12:25:00,AMD
Brandi Carlile,2011-09-16 14:10:00,AMD
Ray LaMontagne,2011-09-16 16:10:00,AMD
Bright Eyes,2011-09-16 18:10:00,AMD
Coldplay,2011-09-16 20:10:00,AMD
Mariachi El Bronx,2011-09-18 12:30:00,AMD
The Walkmen,2011-09-18 14:30:00,AMD
Ryan Bingham & The Dead Horses,2011-09-18 16:30:00,AMD
Manu Chao La Ventura,2011-09-18 18:30:00,AMD
Federico Aubele,2011-09-17 11:45:00,Honda
The Belle Brigade,2011-09-17 13:15:00,Honda
City and Colour,2011-09-17 15:00:00,Honda
0,2011-09-17 17:00:00,Honda
Chromeo,2011-09-17 19:00:00,Honda
Cults,2011-09-16 11:45:00,Honda
Wild Beasts,2011-09-16 13:10:00,Honda
James Blake,2011-09-16 15:10:00,Honda
Cold War Kids,2011-09-16 17:10:00,Honda
Santigold,2011-09-16 19:10:00,Honda
WAX,2011-09-18 11:45:00,Honda
Dale Earnhardt Jr. Jr.,2011-09-18 13:30:00,Honda
AWOLNATION,2011-09-18 15:30:00,Honda
Death From Above 1979,2011-09-18 17:30:00,Honda
Social Distortion,2011-09-18 19:30:00,Honda
Heidi Swedberg,2011-09-17 11:30:00,Austin Kiddie Limits presented by H-E-B
Brady Rymer,2011-09-17 12:30:00,Austin Kiddie Limits presented by H-E-B
Sara Hickman,2011-09-17 13:30:00,Austin Kiddie Limits presented by H-E-B
Quinn Sullivan,2011-09-17 14:30:00,Austin Kiddie Limits presented by H-E-B
Recess Monkey,2011-09-17 15:30:00,Austin Kiddie Limits presented by H-E-B
The School of Rock,2011-09-16 11:30:00,Austin Kiddie Limits presented by H-E-B
Heidi Swedberg,2011-09-16 12:30:00,Austin Kiddie Limits presented by H-E-B
Mariana Iranzi,2011-09-16 13:30:00,Austin Kiddie Limits presented by H-E-B
Sara Hickman,2011-09-16 14:30:00,Austin Kiddie Limits presented by H-E-B
Brady Rymer,2011-09-16 15:30:00,Austin Kiddie Limits presented by H-E-B
Mariana Iranzi,2011-09-18 11:30:00,Austin Kiddie Limits presented by H-E-B
Quinn Sullivan,2011-09-18 12:30:00,Austin Kiddie Limits presented by H-E-B
Recess Monkey,2011-09-18 13:30:00,Austin Kiddie Limits presented by H-E-B
The Q Brothers,2011-09-18 14:30:00,Austin Kiddie Limits presented by H-E-B
Peter DiStefano & Tor,2011-09-18 15:15:00,Austin Kiddie Limits presented by H-E-B
The School of Rock,2011-09-18 16:05:00,Austin Kiddie Limits presented by H-E-B
Elizaveta,2011-09-17 11:15:00,Austin Ventures
Fresh Millions,2011-09-17 12:00:00,Austin Ventures
Cowboy and Indian,2011-09-17 13:00:00,Austin Ventures
Phosphorescent,2011-09-17 14:00:00,Austin Ventures
Daniel Lanois' Black Dub,2011-09-17 15:15:00,Austin Ventures
The Moondoggies,2011-09-17 16:30:00,Austin Ventures
Wanda Jackson,2011-09-17 17:45:00,Austin Ventures
Court Yard Hounds,2011-09-17 19:00:00,Austin Ventures
Miniature Tigers,2011-09-16 11:20:00,Austin Ventures
An Horse,2011-09-16 12:20:00,Austin Ventures
Reptar,2011-09-16 13:20:00,Austin Ventures
Fool's Gold,2011-09-16 14:30:00,Austin Ventures
Electric Touch,2011-09-16 15:45:00,Austin Ventures
Kurt Vile and the Violators,2011-09-16 17:00:00,Austin Ventures
North Mississippi Allstars,2011-09-16 18:15:00,Austin Ventures
Sara Bareilles,2011-09-16 19:30:00,Austin Ventures
Ruby Jane,2011-09-18 11:20:00,Austin Ventures
little hurricane,2011-09-18 12:20:00,Austin Ventures
The Greencards,2011-09-18 13:20:00,Austin Ventures
Suzanna Choffel,2011-09-18 14:30:00,Austin Ventures
Nick 13,2011-09-18 15:45:00,Austin Ventures
Joseph Arthur,2011-09-18 17:00:00,Austin Ventures
Gomez,2011-09-18 18:15:00,Austin Ventures
Hayes Carll,2011-09-18 19:30:00,Austin Ventures
Tyler Bryant,2011-09-17 11:15:00,BMI
The Kingston Springs,2011-09-17 12:30:00,BMI
Jon Pardi,2011-09-17 14:00:00,BMI
Chancellor Warhol,2011-09-17 16:00:00,BMI
Patrice Pike,2011-09-17 18:00:00,BMI
Hudson Moore,2011-09-16 11:15:00,BMI
Ha Ha Tonka,2011-09-16 12:45:00,BMI
Bobby Long,2011-09-16 14:30:00,BMI
Beardyman,2011-09-16 16:30:00,BMI
Gary Clark Jr.,2011-09-16 18:30:00,BMI
MilkDrive,2011-09-18 11:15:00,BMI
Seth Walker,2011-09-18 12:45:00,BMI
Courtney Jaye,2011-09-18 14:30:00,BMI
Pernikoff Brothers,2011-09-18 16:30:00,BMI
We Are Augustines,2011-09-18 18:30:00,BMI
The Warrior Gospel Band,2011-09-17 11:30:00,Vista Equity
Endurance,2011-09-17 13:00:00,Vista Equity
Tyree Morris & The Hearts of Worship,2011-09-17 14:30:00,Vista Equity
Abigail Washburn & The Village,2011-09-17 16:00:00,Vista Equity
Gillian Welch,2011-09-17 17:30:00,Vista Equity
Preservation Hall Jazz Band and The Del McCoury Band,2011-09-17 19:00:00,Vista Equity
The Barton Hills Choir,2011-09-16 12:00:00,Vista Equity
Disciples Of Christ,2011-09-16 13:30:00,Vista Equity
Francisca Valenzuela,2011-09-16 15:00:00,Vista Equity
The Cave Singers,2011-09-16 16:30:00,Vista Equity
Charles Bradley,2011-09-16 18:00:00,Vista Equity
Mavis Staples,2011-09-16 19:30:00,Vista Equity
The Bells Of Joy,2011-09-18 12:00:00,Vista Equity
The Durdens,2011-09-18 13:30:00,Vista Equity
The Lee Boys,2011-09-18 15:00:00,Vista Equity
Bomba Estereo,2011-09-18 16:30:00,Vista Equity
Randy Newman,2011-09-18 19:30:00,Vista Equity
Jack Ingram,2011-09-18 18:00:00,Vista Equity
Telekinesis,2011-09-17 11:45:00,Google+
Twin Shadow,2011-09-17 13:15:00,Google+
Alexander,2011-09-17 15:00:00,Google+
Skrillex,2011-09-17 17:00:00,Google+
TV On The Radio,2011-09-17 19:00:00,Google+
Futurebirds,2011-09-16 11:45:00,Google+
The Secret Sisters,2011-09-16 13:30:00,Google+
Smith Westerns,2011-09-16 15:30:00,Google+
Foster The People,2011-09-16 17:30:00,Google+
Pretty Lights,2011-09-16 19:30:00,Google+
Yellow Ostrich,2011-09-18 11:45:00,Google+
The Head and The Heart,2011-09-18 13:30:00,Google+
Chiddy Bang,2011-09-18 15:30:00,Google+
Elbow,2011-09-18 17:30:00,Google+
Empire Of The Sun,2011-09-18 19:30:00,Google+
J. Roddy Walston & the Business,2011-09-17 14:00:00,Bud Light
Alison Krauss & Union Station,2011-09-17 16:00:00,Bud Light
Aloe Blacc & The Grand Scheme,2011-09-17 12:30:00,Bud Light
Cee Lo,2011-09-17 18:00:00,Bud Light
Stevie Wonder,2011-09-17 20:00:00,Bud Light
Theophilus London,2011-09-16 12:30:00,Bud Light
Delta Spirit,2011-09-16 14:30:00,Bud Light
Big Boi,2011-09-16 16:30:00,Bud Light
"Nas & Damian ""Jr Gong"" Marley",2011-09-16 18:30:00,Bud Light
Kanye West,2011-09-16 20:30:00,Bud Light
Graffiti6,2011-09-18 12:30:00,Bud Light
The Airborne Toxic Event,2011-09-18 14:30:00,Bud Light
Broken Social Scene,2011-09-18 16:30:00,Bud Light
Arcade Fire,2011-09-18 20:30:00,Bud Light
Fleet Foxes,2011-09-18 18:30:00,Bud Light
