capacity,name,id
700,AMD,1
2000,Honda,2
2300,Austin Kiddie Limits presented by H-E-B,3
2000,Austin Ventures,4
2000,BMI,5
2000,Vista Equity,6
2000,Google+,7
2000,Bud Light,8
2000,Auditorium Shores,9
2000,Auditorium Shores2,10
