"13","Tyler Bryant","1184","13","2011-09-17 11:15:00","2011-09-17 12:00:00","5","13","5","BMI","2000"
"18","The Kingston Springs","1940","18","2011-09-17 12:30:00","2011-09-17 13:15:00","5","18","5","BMI","2000"
"25","Jon Pardi","823","25","2011-09-17 14:00:00","2011-09-17 15:00:00","5","25","5","BMI","2000"
"32","Chancellor Warhol","1672","32","2011-09-17 16:00:00","2011-09-17 17:00:00","5","32","5","BMI","2000"
"37","Patrice Pike","1137","37","2011-09-17 18:00:00","2011-09-17 19:00:00","5","37","5","BMI","2000"
"50","Hudson Moore","1171","50","2011-09-16 11:15:00","2011-09-16 12:00:00","5","50","5","BMI","2000"
"57","Ha Ha Tonka","911","58","2011-09-16 12:45:00","2011-09-16 13:30:00","5","57","5","BMI","2000"
"62","Bobby Long","926","64","2011-09-16 14:30:00","2011-09-16 15:30:00","5","62","5","BMI","2000"
"71","Beardyman","915","74","2011-09-16 16:30:00","2011-09-16 17:30:00","5","71","5","BMI","2000"
"76","Gary Clark Jr.","1194","79","2011-09-16 18:30:00","2011-09-16 19:30:00","5","76","5","BMI","2000"
"89","MilkDrive","903","93","2011-09-18 11:15:00","2011-09-18 12:00:00","5","89","5","BMI","2000"
"93","Seth Walker","1050","97","2011-09-18 12:45:00","2011-09-18 13:30:00","5","93","5","BMI","2000"
"102","Courtney Jaye","1282","108","2011-09-18 14:30:00","2011-09-18 15:30:00","5","102","5","BMI","2000"
"113","Pernikoff Brothers","1805","120","2011-09-18 16:30:00","2011-09-18 17:30:00","5","113","5","BMI","2000"
"121","We Are Augustines","1596","128","2011-09-18 18:30:00","2011-09-18 19:30:00","5","121","5","BMI","2000"
