"bands.id","bands.fee","bands.name","performances.id","performances.start","performances.end","performances.band_id","performances.venue_id","venues.id","venues.name","venues.capacity"
"1","1050","The Antlers","1","2011-09-17 12:30:00","2011-09-17 13:15:00","1","1","1","AMD","700"
"2","1382","Young The Giant","2","2011-09-17 14:00:00","2011-09-17 15:00:00","2","1","1","AMD","700"
"3","913","Iron & Wine","3","2011-09-17 16:00:00","2011-09-17 17:00:00","3","1","1","AMD","700"
"4","754","Cut Copy","4","2011-09-17 18:00:00","2011-09-17 19:00:00","4","1","1","AMD","700"
"5","1586","My Morning Jacket","5","2011-09-17 20:00:00","2011-09-17 21:30:00","5","1","1","AMD","700"
"45","1733","Asleep at the Wheel","45","2011-09-16 12:25:00","2011-09-16 13:10:00","45","1","1","AMD","700"
"46","1324","Brandi Carlile","46","2011-09-16 14:10:00","2011-09-16 15:10:00","46","1","1","AMD","700"
"66","1330","Ray LaMontagne","69","2011-09-16 16:10:00","2011-09-16 17:10:00","66","1","1","AMD","700"
"78","1046","Bright Eyes","81","2011-09-16 18:10:00","2011-09-16 19:10:00","78","1","1","AMD","700"
"85","824","Coldplay","88","2011-09-16 20:10:00","2011-09-16 21:40:00","85","1","1","AMD","700"
"86","1560","Mariachi El Bronx","89","2011-09-18 12:30:00","2011-09-18 13:30:00","86","1","1","AMD","700"
"99","1040","The Walkmen","105","2011-09-18 14:30:00","2011-09-18 15:30:00","99","1","1","AMD","700"
"110","2585","Ryan Bingham & The Dead Horses","117","2011-09-18 16:30:00","2011-09-18 17:30:00","110","1","1","AMD","700"
"125","1790","Manu Chao La Ventura","132","2011-09-18 18:30:00","2011-09-18 19:30:00","125","1","1","AMD","700"
"6","1423","Federico Aubele","6","2011-09-17 11:45:00","2011-09-17 12:30:00","6","2","2","Honda","2000"
"7","1523","The Belle Brigade","7","2011-09-17 13:15:00","2011-09-17 14:00:00","7","2","2","Honda","2000"
"8","1408","City and Colour","8","2011-09-17 15:00:00","2011-09-17 16:00:00","8","2","2","Honda","2000"
"9","1999","0","9","2011-09-17 17:00:00","2011-09-17 18:00:00","9","2","2","Honda","2000"
"10","717","Chromeo","10","2011-09-17 19:00:00","2011-09-17 20:00:00","10","2","2","Honda","2000"
"47","523","Cults","47","2011-09-16 11:45:00","2011-09-16 12:25:00","47","2","2","Honda","2000"
"54","1042","Wild Beasts","55","2011-09-16 13:10:00","2011-09-16 14:10:00","54","2","2","Honda","2000"
"65","1007","James Blake","68","2011-09-16 15:10:00","2011-09-16 16:10:00","65","2","2","Honda","2000"
"69","1143","Cold War Kids","72","2011-09-16 17:10:00","2011-09-16 18:10:00","69","2","2","Honda","2000"
"79","933","Santigold","82","2011-09-16 19:10:00","2011-09-16 20:10:00","79","2","2","Honda","2000"
"87","240","WAX","90","2011-09-18 11:45:00","2011-09-18 12:30:00","87","2","2","Honda","2000"
"98","1859","Dale Earnhardt Jr. Jr.","104","2011-09-18 13:30:00","2011-09-18 14:30:00","98","2","2","Honda","2000"
"109","764","AWOLNATION","115","2011-09-18 15:30:00","2011-09-18 16:30:00","109","2","2","Honda","2000"
"111","1697","Death From Above 1979","118","2011-09-18 17:30:00","2011-09-18 18:30:00","111","2","2","Honda","2000"
"124","1706","Social Distortion","131","2011-09-18 19:30:00","2011-09-18 20:30:00","124","2","2","Honda","2000"
"11","1334","Heidi Swedberg","11","2011-09-17 11:30:00","2011-09-17 11:55:00","11","3","3","Austin Kiddie Limits presented by H-E-B","2300"
"16","1057","Brady Rymer","16","2011-09-17 12:30:00","2011-09-17 12:55:00","16","3","3","Austin Kiddie Limits presented by H-E-B","2300"
"22","1122","Sara Hickman","22","2011-09-17 13:30:00","2011-09-17 13:55:00","22","3","3","Austin Kiddie Limits presented by H-E-B","2300"
"23","1401","Quinn Sullivan","23","2011-09-17 14:30:00","2011-09-17 14:55:00","23","3","3","Austin Kiddie Limits presented by H-E-B","2300"
"30","1272","Recess Monkey","30","2011-09-17 15:30:00","2011-09-17 16:00:00","30","3","3","Austin Kiddie Limits presented by H-E-B","2300"
"48","1613","The School of Rock","48","2011-09-16 11:30:00","2011-09-16 11:55:00","48","3","3","Austin Kiddie Limits presented by H-E-B","2300"
"11","1334","Heidi Swedberg","54","2011-09-16 12:30:00","2011-09-16 12:55:00","11","3","3","Austin Kiddie Limits presented by H-E-B","2300"
"55","1350","Mariana Iranzi","56","2011-09-16 13:30:00","2011-09-16 13:55:00","55","3","3","Austin Kiddie Limits presented by H-E-B","2300"
"22","1122","Sara Hickman","62","2011-09-16 14:30:00","2011-09-16 14:55:00","22","3","3","Austin Kiddie Limits presented by H-E-B","2300"
"16","1057","Brady Rymer","67","2011-09-16 15:30:00","2011-09-16 16:00:00","16","3","3","Austin Kiddie Limits presented by H-E-B","2300"
"55","1350","Mariana Iranzi","91","2011-09-18 11:30:00","2011-09-18 11:55:00","55","3","3","Austin Kiddie Limits presented by H-E-B","2300"
"23","1401","Quinn Sullivan","99","2011-09-18 12:30:00","2011-09-18 12:55:00","23","3","3","Austin Kiddie Limits presented by H-E-B","2300"
"30","1272","Recess Monkey","103","2011-09-18 13:30:00","2011-09-18 13:55:00","30","3","3","Austin Kiddie Limits presented by H-E-B","2300"
"100","1275","The Q Brothers","106","2011-09-18 14:30:00","2011-09-18 14:55:00","100","3","3","Austin Kiddie Limits presented by H-E-B","2300"
"108","1848","Peter DiStefano & Tor","114","2011-09-18 15:15:00","2011-09-18 15:45:00","108","3","3","Austin Kiddie Limits presented by H-E-B","2300"
"48","1613","The School of Rock","116","2011-09-18 16:05:00","2011-09-18 16:30:00","48","3","3","Austin Kiddie Limits presented by H-E-B","2300"
"12","933","Elizaveta","12","2011-09-17 11:15:00","2011-09-17 11:45:00","12","4","4","Austin Ventures","2000"
"17","1375","Fresh Millions","17","2011-09-17 12:00:00","2011-09-17 12:40:00","17","4","4","Austin Ventures","2000"
"21","1593","Cowboy and Indian","21","2011-09-17 13:00:00","2011-09-17 13:40:00","21","4","4","Austin Ventures","2000"
"24","1493","Phosphorescent","24","2011-09-17 14:00:00","2011-09-17 14:45:00","24","4","4","Austin Ventures","2000"
"29","2098","Daniel Lanois' Black Dub","29","2011-09-17 15:15:00","2011-09-17 16:00:00","29","4","4","Austin Ventures","2000"
"31","1468","The Moondoggies","31","2011-09-17 16:30:00","2011-09-17 17:15:00","31","4","4","Austin Ventures","2000"
"39","1236","Wanda Jackson","39","2011-09-17 17:45:00","2011-09-17 18:30:00","39","4","4","Austin Ventures","2000"
"40","1614","Court Yard Hounds","40","2011-09-17 19:00:00","2011-09-17 20:00:00","40","4","4","Austin Ventures","2000"
"49","1596","Miniature Tigers","49","2011-09-16 11:20:00","2011-09-16 12:00:00","49","4","4","Austin Ventures","2000"
"53","720","An Horse","53","2011-09-16 12:20:00","2011-09-16 13:00:00","53","4","4","Austin Ventures","2000"
"56","622","Reptar","57","2011-09-16 13:20:00","2011-09-16 14:00:00","56","4","4","Austin Ventures","2000"
"61","976","Fool's Gold","63","2011-09-16 14:30:00","2011-09-16 15:15:00","61","4","4","Austin Ventures","2000"
"67","1358","Electric Touch","70","2011-09-16 15:45:00","2011-09-16 16:30:00","67","4","4","Austin Ventures","2000"
"70","2541","Kurt Vile and the Violators","73","2011-09-16 17:00:00","2011-09-16 17:45:00","70","4","4","Austin Ventures","2000"
"77","2606","North Mississippi Allstars","80","2011-09-16 18:15:00","2011-09-16 19:00:00","77","4","4","Austin Ventures","2000"
"80","1338","Sara Bareilles","83","2011-09-16 19:30:00","2011-09-16 20:30:00","80","4","4","Austin Ventures","2000"
"88","832","Ruby Jane","92","2011-09-18 11:20:00","2011-09-18 12:00:00","88","4","4","Austin Ventures","2000"
"94","1647","little hurricane","98","2011-09-18 12:20:00","2011-09-18 13:00:00","94","4","4","Austin Ventures","2000"
"97","1343","The Greencards","102","2011-09-18 13:20:00","2011-09-18 14:00:00","97","4","4","Austin Ventures","2000"
"101","1463","Suzanna Choffel","107","2011-09-18 14:30:00","2011-09-18 15:15:00","101","4","4","Austin Ventures","2000"
"107","521","Nick 13","113","2011-09-18 15:45:00","2011-09-18 16:30:00","107","4","4","Austin Ventures","2000"
"112","1279","Joseph Arthur","119","2011-09-18 17:00:00","2011-09-18 17:45:00","112","4","4","Austin Ventures","2000"
"122","514","Gomez","129","2011-09-18 18:15:00","2011-09-18 19:00:00","122","4","4","Austin Ventures","2000"
"123","1032","Hayes Carll","130","2011-09-18 19:30:00","2011-09-18 20:30:00","123","4","4","Austin Ventures","2000"
"13","1184","Tyler Bryant","13","2011-09-17 11:15:00","2011-09-17 12:00:00","13","5","5","BMI","2000"
"18","1940","The Kingston Springs","18","2011-09-17 12:30:00","2011-09-17 13:15:00","18","5","5","BMI","2000"
"25","823","Jon Pardi","25","2011-09-17 14:00:00","2011-09-17 15:00:00","25","5","5","BMI","2000"
"32","1672","Chancellor Warhol","32","2011-09-17 16:00:00","2011-09-17 17:00:00","32","5","5","BMI","2000"
"37","1137","Patrice Pike","37","2011-09-17 18:00:00","2011-09-17 19:00:00","37","5","5","BMI","2000"
"50","1171","Hudson Moore","50","2011-09-16 11:15:00","2011-09-16 12:00:00","50","5","5","BMI","2000"
"57","911","Ha Ha Tonka","58","2011-09-16 12:45:00","2011-09-16 13:30:00","57","5","5","BMI","2000"
"62","926","Bobby Long","64","2011-09-16 14:30:00","2011-09-16 15:30:00","62","5","5","BMI","2000"
"71","915","Beardyman","74","2011-09-16 16:30:00","2011-09-16 17:30:00","71","5","5","BMI","2000"
"76","1194","Gary Clark Jr.","79","2011-09-16 18:30:00","2011-09-16 19:30:00","76","5","5","BMI","2000"
"89","903","MilkDrive","93","2011-09-18 11:15:00","2011-09-18 12:00:00","89","5","5","BMI","2000"
"93","1050","Seth Walker","97","2011-09-18 12:45:00","2011-09-18 13:30:00","93","5","5","BMI","2000"
"102","1282","Courtney Jaye","108","2011-09-18 14:30:00","2011-09-18 15:30:00","102","5","5","BMI","2000"
"113","1805","Pernikoff Brothers","120","2011-09-18 16:30:00","2011-09-18 17:30:00","113","5","5","BMI","2000"
"121","1596","We Are Augustines","128","2011-09-18 18:30:00","2011-09-18 19:30:00","121","5","5","BMI","2000"
"14","2118","The Warrior Gospel Band","14","2011-09-17 11:30:00","2011-09-17 12:30:00","14","6","6","Vista Equity","2000"
"20","917","Endurance","20","2011-09-17 13:00:00","2011-09-17 14:00:00","20","6","6","Vista Equity","2000"
"26","3252","Tyree Morris & The Hearts of Worship","26","2011-09-17 14:30:00","2011-09-17 15:30:00","26","6","6","Vista Equity","2000"
"33","2686","Abigail Washburn & The Village","33","2011-09-17 16:00:00","2011-09-17 17:00:00","33","6","6","Vista Equity","2000"
"36","1235","Gillian Welch","36","2011-09-17 17:30:00","2011-09-17 18:30:00","36","6","6","Vista Equity","2000"
"41","4663","Preservation Hall Jazz Band and The Del McCoury Band","41","2011-09-17 19:00:00","2011-09-17 20:00:00","41","6","6","Vista Equity","2000"
"52","2008","The Barton Hills Choir","52","2011-09-16 12:00:00","2011-09-16 13:00:00","52","6","6","Vista Equity","2000"
"60","1794","Disciples Of Christ","61","2011-09-16 13:30:00","2011-09-16 14:30:00","60","6","6","Vista Equity","2000"
"63","1985","Francisca Valenzuela","65","2011-09-16 15:00:00","2011-09-16 16:00:00","63","6","6","Vista Equity","2000"
"72","1467","The Cave Singers","75","2011-09-16 16:30:00","2011-09-16 17:30:00","72","6","6","Vista Equity","2000"
"75","1445","Charles Bradley","78","2011-09-16 18:00:00","2011-09-16 19:00:00","75","6","6","Vista Equity","2000"
"81","1276","Mavis Staples","84","2011-09-16 19:30:00","2011-09-16 20:30:00","81","6","6","Vista Equity","2000"
"91","1370","The Bells Of Joy","95","2011-09-18 12:00:00","2011-09-18 13:00:00","91","6","6","Vista Equity","2000"
"96","1046","The Durdens","101","2011-09-18 13:30:00","2011-09-18 14:30:00","96","6","6","Vista Equity","2000"
"103","1044","The Lee Boys","109","2011-09-18 15:00:00","2011-09-18 16:00:00","103","6","6","Vista Equity","2000"
"106","1240","Bomba Estereo","112","2011-09-18 16:30:00","2011-09-18 17:30:00","106","6","6","Vista Equity","2000"
"119","1156","Randy Newman","126","2011-09-18 19:30:00","2011-09-18 20:30:00","119","6","6","Vista Equity","2000"
"120","1015","Jack Ingram","127","2011-09-18 18:00:00","2011-09-16 19:00:00","120","6","6","Vista Equity","2000"
"15","1152","Telekinesis","15","2011-09-17 11:45:00","2011-09-17 12:30:00","15","7","7","Google+","2000"
"19","1064","Twin Shadow","19","2011-09-17 13:15:00","2011-09-17 14:00:00","19","7","7","Google+","2000"
"28","916","Alexander","28","2011-09-17 15:00:00","2011-09-17 16:00:00","28","7","7","Google+","2000"
"35","846","Skrillex","35","2011-09-17 17:00:00","2011-09-17 18:00:00","35","7","7","Google+","2000"
"42","1239","TV On The Radio","42","2011-09-17 19:00:00","2011-09-17 20:00:00","42","7","7","Google+","2000"
"51","1167","Futurebirds","51","2011-09-16 11:45:00","2011-09-16 12:30:00","51","7","7","Google+","2000"
"59","1716","The Secret Sisters","60","2011-09-16 13:30:00","2011-09-16 14:30:00","59","7","7","Google+","2000"
"68","1408","Smith Westerns","71","2011-09-16 15:30:00","2011-09-16 16:30:00","68","7","7","Google+","2000"
"74","1593","Foster The People","77","2011-09-16 17:30:00","2011-09-16 18:30:00","74","7","7","Google+","2000"
"82","1299","Pretty Lights","85","2011-09-16 19:30:00","2011-09-16 20:30:00","82","7","7","Google+","2000"
"90","1400","Yellow Ostrich","94","2011-09-18 11:45:00","2011-09-18 12:30:00","90","7","7","Google+","2000"
"95","1883","The Head and The Heart","100","2011-09-18 13:30:00","2011-09-18 14:30:00","95","7","7","Google+","2000"
"114","1005","Chiddy Bang","121","2011-09-18 15:30:00","2011-09-18 16:30:00","114","7","7","Google+","2000"
"117","505","Elbow","124","2011-09-18 17:30:00","2011-09-18 18:30:00","117","7","7","Google+","2000"
"118","1486","Empire Of The Sun","125","2011-09-18 19:30:00","2011-09-18 20:30:00","118","7","7","Google+","2000"
"27","2741","J. Roddy Walston & the Business","27","2011-09-17 14:00:00","2011-09-17 15:00:00","27","8","8","Bud Light","2000"
"34","2672","Alison Krauss & Union Station","34","2011-09-17 16:00:00","2011-09-17 17:00:00","34","8","8","Bud Light","2000"
"38","2430","Aloe Blacc & The Grand Scheme","38","2011-09-17 12:30:00","2011-09-17 13:15:00","38","8","8","Bud Light","2000"
"43","488","Cee Lo","43","2011-09-17 18:00:00","2011-09-17 19:00:00","43","8","8","Bud Light","2000"
"44","1279","Stevie Wonder","44","2011-09-17 20:00:00","2011-09-17 22:00:00","44","8","8","Bud Light","2000"
"58","1711","Theophilus London","59","2011-09-16 12:30:00","2011-09-16 13:30:00","58","8","8","Bud Light","2000"
"64","1157","Delta Spirit","66","2011-09-16 14:30:00","2011-09-16 15:30:00","64","8","8","Bud Light","2000"
"73","588","Big Boi","76","2011-09-16 16:30:00","2011-09-16 17:30:00","73","8","8","Bud Light","2000"
"83","2343","Nas & Damian ""Jr Gong"" Marley","86","2011-09-16 18:30:00","2011-09-16 19:30:00","83","8","8","Bud Light","2000"
"84","955","Kanye West","87","2011-09-16 20:30:00","2011-09-16 22:00:00","84","8","8","Bud Light","2000"
"92","866","Graffiti6","96","2011-09-18 12:30:00","2011-09-18 13:30:00","92","8","8","Bud Light","2000"
"104","2236","The Airborne Toxic Event","110","2011-09-18 14:30:00","2011-09-18 15:30:00","104","8","8","Bud Light","2000"
"105","1770","Broken Social Scene","111","2011-09-18 16:30:00","2011-09-18 17:30:00","105","8","8","Bud Light","2000"
"115","998","Arcade Fire","122","2011-09-18 20:30:00","2011-09-18 22:00:00","115","8","8","Bud Light","2000"
"116","1045","Fleet Foxes","123","2011-09-18 18:30:00","2011-09-18 19:30:00","116","8","8","Bud Light","2000"
