datetime,user_name,action_type
07-11-2010,Brandon Welch,post
08-11-2010,Brandon Welch,post
09-11-2010,Brandon Welch,post
10-11-2010,Brandon Welch,post
11-11-2010,Brandon Welch,post
11-11-2010,Maria Johnston,post
11-11-2010,Ashley Hernandez,join
11-11-2010,Ashley Hernandez,post
12-11-2010,Brandon Welch,post
12-11-2010,Maria Johnston,post
13-11-2010,Brandon Welch,post
14-11-2010,Brandon Welch,post
15-11-2010,Brandon Welch,post
16-11-2010,Brandon Welch,post
17-11-2010,Brandon Welch,post
18-11-2010,Brandon Welch,post
19-11-2010,Brandon Welch,post
19-11-2010,Maria Johnston,post
20-11-2010,Brandon Welch,post
21-11-2010,Brandon Welch,post
23-11-2010,Brandon Welch,post
24-11-2010,Brandon Welch,post
25-11-2010,Brandon Welch,post
26-11-2010,Brandon Welch,post
27-11-2010,Brandon Welch,post
28-11-2010,Brandon Welch,post
29-11-2010,Brandon Welch,post
30-11-2010,Brandon Welch,post
02-12-2010,Brandon Welch,post
03-12-2010,Brandon Welch,post
04-12-2010,Brandon Welch,post
05-12-2010,Brandon Welch,post
06-12-2010,Brandon Welch,post
07-12-2010,Brandon Welch,post
08-12-2010,Brandon Welch,post
09-12-2010,Brandon Welch,post
11-12-2010,Brandon Welch,post
12-12-2010,Brandon Welch,post
13-12-2010,Brandon Welch,post
14-12-2010,Brandon Welch,post
15-12-2010,Brandon Welch,post
15-12-2010,Maria Johnston,post
16-12-2010,Brandon Welch,post
17-12-2010,Brandon Welch,post
18-12-2010,Brandon Welch,post
19-12-2010,Brandon Welch,post
19-12-2010,Andrea Turner,post
20-12-2010,Brandon Welch,post
21-12-2010,Brandon Welch,post
21-12-2010,Billy Martinez,post
22-12-2010,Brandon Welch,post
23-12-2010,Brandon Welch,post
24-12-2010,Brandon Welch,post
25-12-2010,Brandon Welch,post
26-12-2010,Brandon Welch,post
27-12-2010,Brandon Welch,post
29-12-2010,Brandon Welch,post
30-12-2010,Brandon Welch,post
30-12-2010,Andrea Turner,post
31-12-2010,Brandon Welch,post
01-01-2011,Brandon Welch,post
01-01-2011,Amy Gray,join
01-01-2011,Amy Gray,post
02-01-2011,Brandon Welch,post
03-01-2011,Brandon Welch,post
04-01-2011,Brandon Welch,post
05-01-2011,Brandon Welch,post
06-01-2011,Brandon Welch,post
07-01-2011,Maria Johnston,post
08-01-2011,Brandon Welch,post
09-01-2011,Brandon Welch,post
09-01-2011,Maria Johnston,post
10-01-2011,Brandon Welch,post
11-01-2011,Brandon Welch,post
12-01-2011,Brandon Welch,post
14-01-2011,Brandon Welch,post
14-01-2011,Billy Martinez,post
15-01-2011,Brandon Welch,post
16-01-2011,Brandon Welch,post
17-01-2011,Earl Carter,post
18-01-2011,Brandon Welch,post
19-01-2011,Brandon Welch,post
20-01-2011,Brandon Welch,post
21-01-2011,Brandon Welch,post
22-01-2011,Brandon Welch,post
22-01-2011,Andrea Turner,post
23-01-2011,Brandon Welch,post
24-01-2011,Brandon Welch,post
25-01-2011,Brandon Welch,post
26-01-2011,Brandon Welch,post
27-01-2011,Brandon Welch,post
28-01-2011,Brandon Welch,post
29-01-2011,Brandon Welch,post
30-01-2011,Brandon Welch,post
31-01-2011,Brandon Welch,post
02-02-2011,Brandon Welch,post
02-02-2011,George Thompson,join
02-02-2011,George Thompson,post
04-02-2011,Brandon Welch,post
04-02-2011,Melissa Nelson,join
04-02-2011,George Thompson,post
05-02-2011,Brandon Welch,post
05-02-2011,Virginia Austin,post
05-02-2011,Rachel Greene,join
05-02-2011,Ashley Hernandez,post
06-02-2011,Brandon Welch,post
07-02-2011,Brandon Welch,post
08-02-2011,Brandon Welch,post
11-02-2011,Brandon Welch,post
12-02-2011,Brandon Welch,post
14-02-2011,Dorothy Kelly,join
14-02-2011,Rachel Greene,post
15-02-2011,Brandon Welch,post
16-02-2011,Brandon Welch,post
17-02-2011,Brandon Welch,post
17-02-2011,Fred Fowler,join
17-02-2011,Fred Fowler,post
18-02-2011,Brandon Welch,post
19-02-2011,Brandon Welch,post
20-02-2011,Brandon Welch,post
21-02-2011,Brandon Welch,post
22-02-2011,Brandon Welch,post
23-02-2011,Brandon Welch,post
24-02-2011,Brandon Welch,post
25-02-2011,Brandon Welch,post
27-02-2011,Brandon Welch,post
28-02-2011,Brandon Welch,post
01-03-2011,Brandon Welch,post
02-03-2011,Brandon Welch,post
02-03-2011,Billy Martinez,post
03-03-2011,Brandon Welch,post
05-03-2011,Brandon Welch,post
06-03-2011,Brandon Welch,post
07-03-2011,Brandon Welch,post
09-03-2011,Brandon Welch,post
10-03-2011,Brandon Welch,post
11-03-2011,Brandon Welch,post
12-03-2011,Brandon Welch,post
13-03-2011,Brandon Welch,post
14-03-2011,Brandon Welch,post
15-03-2011,Brandon Welch,post
16-03-2011,Brandon Welch,post
17-03-2011,Brandon Welch,post
18-03-2011,Brandon Welch,post
19-03-2011,Brandon Welch,post
20-03-2011,Brandon Welch,post
21-03-2011,Brandon Welch,post
21-03-2011,Andrea Turner,post
22-03-2011,Brandon Welch,post
24-03-2011,Brandon Welch,post
24-03-2011,Earl Carter,post
26-03-2011,Brandon Welch,post
27-03-2011,Brandon Welch,post
29-03-2011,Brandon Welch,post
29-03-2011,Kathy Flores,join
29-03-2011,Kathy Flores,post
30-03-2011,Brandon Welch,post
31-03-2011,Brandon Welch,post
01-04-2011,Brandon Welch,post
02-04-2011,Brandon Welch,post
02-04-2011,Evelyn Gordon,join
02-04-2011,Rachel Greene,post
03-04-2011,Brandon Welch,post
03-04-2011,Maria Johnston,post
04-04-2011,Brandon Welch,post
05-04-2011,Brandon Welch,post
06-04-2011,Brandon Welch,post
07-04-2011,Brandon Welch,post
08-04-2011,Brandon Welch,post
09-04-2011,Brandon Welch,post
10-04-2011,Brandon Welch,post
10-04-2011,Daniel Garza,join
10-04-2011,Rachel Greene,post
11-04-2011,Brandon Welch,post
12-04-2011,Brandon Welch,post
13-04-2011,Brandon Welch,post
14-04-2011,Brandon Welch,post
15-04-2011,Brandon Welch,post
16-04-2011,Brandon Welch,post
17-04-2011,Brandon Welch,post
17-04-2011,Daniel Wheeler,join
17-04-2011,Daniel Garza,post
18-04-2011,Brandon Welch,post
19-04-2011,Brandon Welch,post
19-04-2011,Andrea Turner,post
20-04-2011,Brandon Welch,post
21-04-2011,Brandon Welch,post
22-04-2011,Brandon Welch,post
23-04-2011,Brandon Welch,post
24-04-2011,Brandon Welch,post
25-04-2011,Brandon Welch,post
26-04-2011,Brandon Welch,post
27-04-2011,Brandon Welch,post
29-04-2011,Brandon Welch,post
30-04-2011,Brandon Welch,post
01-05-2011,Brandon Welch,post
02-05-2011,Brandon Welch,post
03-05-2011,Brandon Welch,post
04-05-2011,Brandon Welch,post
05-05-2011,Brandon Welch,post
06-05-2011,Brandon Welch,post
07-05-2011,Maria Johnston,post
07-05-2011,Melissa Nelson,post
08-05-2011,Virginia Austin,post
08-05-2011,Cheryl Mills,join
08-05-2011,Amy Gray,post
11-05-2011,Brandon Welch,post
11-05-2011,Earl Carter,post
12-05-2011,Billy Martinez,post
14-05-2011,Brandon Welch,post
15-05-2011,Brandon Welch,post
15-05-2011,Ashley Hernandez,post
16-05-2011,Brandon Welch,post
16-05-2011,Earl Carter,post
17-05-2011,Brandon Welch,post
18-05-2011,Brandon Welch,post
19-05-2011,Brandon Welch,post
20-05-2011,Brandon Welch,post
20-05-2011,Virginia Austin,post
21-05-2011,Maria Johnston,post
23-05-2011,Brandon Welch,post
24-05-2011,Brandon Welch,post
24-05-2011,Maria Johnston,post
24-05-2011,Chris Bell,join
24-05-2011,Daniel Wheeler,post
25-05-2011,Brandon Welch,post
25-05-2011,Samuel Harrison,join
25-05-2011,Samuel Harrison,post
27-05-2011,Brandon Welch,post
28-05-2011,Brandon Welch,post
28-05-2011,Nicholas Parker,join
28-05-2011,Fred Fowler,post
31-05-2011,Brandon Welch,post
01-06-2011,George Thompson,post
02-06-2011,Brandon Welch,post
02-06-2011,Virginia Austin,post
03-06-2011,Brandon Welch,post
03-06-2011,Maria Johnston,post
04-06-2011,Brandon Welch,post
04-06-2011,Chris Bell,post
05-06-2011,Brandon Welch,post
05-06-2011,Andrea Turner,post
05-06-2011,Nicholas Parker,post
07-06-2011,Joshua Harris,join
07-06-2011,Nicholas Parker,post
08-06-2011,Brandon Welch,post
09-06-2011,Brandon Welch,post
09-06-2011,Earl Carter,post
10-06-2011,Brandon Welch,post
10-06-2011,Earl Carter,post
10-06-2011,Dorothy Kelly,post
11-06-2011,Billy Martinez,post
11-06-2011,Bobby Willis,join
11-06-2011,Daniel Garza,post
12-06-2011,Brandon Welch,post
12-06-2011,Louise Edwards,join
12-06-2011,Cheryl Mills,post
14-06-2011,Phyllis Hamilton,join
14-06-2011,Daniel Garza,post
18-06-2011,Brandon Welch,post
18-06-2011,Amy Peterson,join
18-06-2011,Fred Fowler,post
19-06-2011,Billy Martinez,post
22-06-2011,Deborah Howard,join
22-06-2011,Ashley Hernandez,post
23-06-2011,Brandon Welch,post
23-06-2011,Matthew Watkins,join
23-06-2011,Phyllis Hamilton,post
24-06-2011,Brandon Welch,post
24-06-2011,Billy Martinez,post
25-06-2011,Brandon Welch,post
26-06-2011,Brandon Welch,post
27-06-2011,Brandon Welch,post
29-06-2011,Andrea Turner,post
30-06-2011,Brandon Welch,post
30-06-2011,Virginia Austin,post
01-07-2011,Billy Martinez,post
03-07-2011,Brandon Welch,post
05-07-2011,Melissa Nelson,post
06-07-2011,Brandon Welch,post
07-07-2011,Brandon Welch,post
07-07-2011,Maria Johnston,post
09-07-2011,Brandon Welch,post
11-07-2011,Pamela Stone,join
11-07-2011,Daniel Wheeler,post
12-07-2011,Brandon Welch,post
12-07-2011,Anna Ward,join
12-07-2011,Ashley Hernandez,post
13-07-2011,Brandon Welch,post
13-07-2011,Evelyn Lynch,join
13-07-2011,Ashley Hernandez,post
14-07-2011,Brandon Welch,post
17-07-2011,Brandon Welch,post
17-07-2011,Terry Wallace,join
17-07-2011,Evelyn Lynch,post
18-07-2011,Billy Martinez,post
19-07-2011,Brandon Welch,post
19-07-2011,Chris Bell,post
20-07-2011,Andrea Turner,post
21-07-2011,Brandon Welch,post
22-07-2011,Brandon Welch,post
23-07-2011,Mildred Martinez,join
23-07-2011,Fred Fowler,post
24-07-2011,Brandon Welch,post
25-07-2011,Brandon Welch,post
25-07-2011,Phyllis Hamilton,post
26-07-2011,Brandon Welch,post
27-07-2011,Brandon Welch,post
28-07-2011,Brandon Welch,post
29-07-2011,Brandon Welch,post
29-07-2011,Virginia Austin,post
30-07-2011,Brandon Welch,post
30-07-2011,Maria Johnston,post
01-08-2011,Brandon Welch,post
01-08-2011,Lori Wilson,join
01-08-2011,Kathy Flores,post
02-08-2011,Brandon Welch,post
03-08-2011,Brandon Welch,post
03-08-2011,Dorothy Gray,join
03-08-2011,Ashley Hernandez,post
04-08-2011,Brandon Welch,post
04-08-2011,Maria Johnston,post
04-08-2011,Deborah Howard,post
06-08-2011,Brandon Welch,post
07-08-2011,Billy Martinez,post
08-08-2011,Andrea Turner,post
09-08-2011,Brandon Welch,post
09-08-2011,Earl Carter,post
09-08-2011,Earl Stewart,join
09-08-2011,Phyllis Hamilton,post
10-08-2011,Brandon Welch,post
12-08-2011,Billy Martinez,post
13-08-2011,Earl Carter,post
16-08-2011,Brandon Welch,post
17-08-2011,Andrea Turner,post
18-08-2011,Brandon Welch,post
18-08-2011,Andrea Turner,post
19-08-2011,Billy Martinez,post
21-08-2011,Brandon Welch,post
21-08-2011,Andrea Turner,post
22-08-2011,Billy Martinez,post
23-08-2011,Brandon Welch,post
24-08-2011,Brandon Welch,post
25-08-2011,Brandon Welch,post
27-08-2011,Brandon Welch,post
28-08-2011,Brandon Welch,post
28-08-2011,Virginia Austin,post
29-08-2011,Brandon Welch,post
30-08-2011,Brandon Welch,post
31-08-2011,Brandon Welch,post
31-08-2011,Earl Carter,post
01-09-2011,Brandon Welch,post
01-09-2011,Janet Mitchell,join
01-09-2011,Amy Peterson,post
02-09-2011,Brandon Welch,post
04-09-2011,Brandon Welch,post
05-09-2011,Brandon Welch,post
07-09-2011,Virginia Austin,post
09-09-2011,Brandon Welch,post
09-09-2011,Billy Martinez,post
10-09-2011,Brandon Welch,post
12-09-2011,Brandon Welch,post
13-09-2011,Brandon Welch,post
13-09-2011,Keith Jackson,join
13-09-2011,Deborah Howard,post
14-09-2011,Brandon Welch,post
14-09-2011,Maria Johnston,post
14-09-2011,Patrick Medina,join
14-09-2011,Amy Peterson,post
16-09-2011,Virginia Austin,post
17-09-2011,Andrea Turner,post
18-09-2011,Brandon Welch,post
18-09-2011,Earl Carter,post
20-09-2011,Maria Johnston,post
21-09-2011,Brandon Welch,post
21-09-2011,Billy Martinez,post
22-09-2011,Brandon Welch,post
22-09-2011,Billy Martinez,post
23-09-2011,Brandon Welch,post
26-09-2011,Brandon Welch,post
27-09-2011,Brandon Welch,post
29-09-2011,Brandon Welch,post
29-09-2011,Amy Peterson,post
30-09-2011,Brandon Welch,post
01-10-2011,Brandon Welch,post
03-10-2011,Brandon Welch,post
04-10-2011,Brandon Welch,post
05-10-2011,Brandon Welch,post
05-10-2011,Mildred Martinez,post
08-10-2011,Brandon Welch,post
08-10-2011,Billy Martinez,post
09-10-2011,Brandon Welch,post
10-10-2011,Julie Carroll,join
10-10-2011,Pamela Stone,post
11-10-2011,Brandon Welch,post
11-10-2011,Maria Johnston,post
12-10-2011,Brandon Welch,post
13-10-2011,Brandon Welch,post
14-10-2011,Brandon Welch,post
15-10-2011,Brandon Welch,post
15-10-2011,Billy Martinez,post
16-10-2011,Brandon Welch,post
16-10-2011,Maria Johnston,post
17-10-2011,Virginia Austin,post
18-10-2011,Maria Johnston,post
19-10-2011,Brandon Welch,post
21-10-2011,Brandon Welch,post
21-10-2011,Cheryl Mills,post
22-10-2011,Andrea Turner,post
23-10-2011,Virginia Austin,post
24-10-2011,Brandon Welch,post
25-10-2011,Brandon Welch,post
26-10-2011,Andrea Turner,post
26-10-2011,Lois Bell,join
26-10-2011,Pamela Stone,post
27-10-2011,Brandon Welch,post
27-10-2011,Earl Carter,post
27-10-2011,Benjamin Long,join
27-10-2011,Pamela Stone,post
28-10-2011,Gloria Powell,join
28-10-2011,Louise Edwards,post
30-10-2011,Brandon Welch,post
30-10-2011,Walter Reed,join
30-10-2011,Cheryl Mills,post
31-10-2011,Brandon Welch,post
31-10-2011,Billy Martinez,post
01-11-2011,Brandon Welch,post
01-11-2011,Virginia Austin,post
04-11-2011,Brandon Welch,post
06-11-2011,Brandon Welch,post
06-11-2011,Matthew Watkins,post
07-11-2011,Brandon Welch,post
08-11-2011,Brandon Welch,post
08-11-2011,Joseph Wells,join
08-11-2011,Lois Bell,post
09-11-2011,Brandon Welch,post
10-11-2011,Brandon Welch,post
11-11-2011,Billy Martinez,post
11-11-2011,Alice Payne,join
11-11-2011,Melissa Nelson,post
12-11-2011,Brandon Welch,post
13-11-2011,Brandon Welch,post
13-11-2011,Donna Lewis,join
13-11-2011,Cheryl Mills,post
15-11-2011,Billy Martinez,post
16-11-2011,Brandon Welch,post
16-11-2011,Janet Murphy,join
16-11-2011,Amy Gray,post
18-11-2011,Maria Johnston,post
19-11-2011,Brandon Welch,post
19-11-2011,Evelyn Gordon,post
20-11-2011,Brandon Welch,post
20-11-2011,Maria Johnston,post
23-11-2011,Brandon Welch,post
23-11-2011,Gloria Walker,join
23-11-2011,Terry Wallace,post
24-11-2011,Brandon Welch,post
24-11-2011,Andrea Turner,post
26-11-2011,Brandon Welch,post
28-11-2011,Maria Johnston,post
28-11-2011,Amy Peterson,post
29-11-2011,Brandon Welch,post
29-11-2011,Bruce Wells,join
29-11-2011,Keith Jackson,post
01-12-2011,Brandon Welch,post
01-12-2011,Andrea Turner,post
02-12-2011,Brandon Welch,post
02-12-2011,Raymond Murray,join
02-12-2011,Joseph Wells,post
03-12-2011,Brandon Welch,post
04-12-2011,Brandon Welch,post
05-12-2011,Brandon Welch,post
06-12-2011,Brandon Welch,post
06-12-2011,Joshua Marshall,join
06-12-2011,Donna Lewis,post
07-12-2011,Brandon Welch,post
07-12-2011,Billy Martinez,post
09-12-2011,Brandon Welch,post
09-12-2011,Virginia Austin,post
10-12-2011,Brandon Welch,post
11-12-2011,Brandon Welch,post
11-12-2011,Virginia Austin,post
11-12-2011,Carolyn Peters,join
11-12-2011,Fred Fowler,post
12-12-2011,Brandon Welch,post
13-12-2011,Brandon Welch,post
13-12-2011,Willie Washington,join
13-12-2011,Carolyn Peters,post
17-12-2011,Brandon Welch,post
18-12-2011,Brandon Welch,post
19-12-2011,Brandon Welch,post
20-12-2011,Brandon Welch,post
20-12-2011,Virginia Austin,post
21-12-2011,Earl Carter,post
22-12-2011,Brandon Welch,post
23-12-2011,Brandon Welch,post
23-12-2011,Dorothy Gray,post
25-12-2011,Brandon Welch,post
26-12-2011,Virginia Austin,post
27-12-2011,Brandon Welch,post
29-12-2011,Dorothy Kelly,post
30-12-2011,Brandon Welch,post
01-01-2012,Brandon Welch,post
02-01-2012,Brandon Welch,post
05-01-2012,Brandon Welch,post
06-01-2012,Brandon Welch,post
06-01-2012,Billy Martinez,post
07-01-2012,Brandon Welch,post
09-01-2012,Brandon Welch,post
09-01-2012,Virginia Austin,post
10-01-2012,Brandon Welch,post
12-01-2012,Brandon Welch,post
13-01-2012,Brandon Welch,post
14-01-2012,Donna Ryan,join
14-01-2012,Carolyn Peters,post
15-01-2012,Brandon Welch,post
16-01-2012,Brandon Welch,post
16-01-2012,Amy Peterson,post
17-01-2012,Andrea Turner,post
19-01-2012,Brandon Welch,post
20-01-2012,Brandon Welch,post
20-01-2012,Earl Carter,post
20-01-2012,Ashley Hernandez,post
21-01-2012,Brandon Welch,post
21-01-2012,Billy Martinez,post
23-01-2012,Billy Martinez,post
24-01-2012,Brandon Welch,post
24-01-2012,James Wheeler,join
24-01-2012,Julie Carroll,post
25-01-2012,Brandon Welch,post
25-01-2012,Evelyn Lynch,post
26-01-2012,Earl Carter,post
27-01-2012,Maria Johnston,post
28-01-2012,Andrea Turner,post
29-01-2012,Virginia Austin,post
30-01-2012,Brandon Welch,post
31-01-2012,Virginia Austin,post
01-02-2012,Virginia Austin,post
01-02-2012,Lois Bell,post
02-02-2012,Billy Martinez,post
02-02-2012,James Wheeler,post
03-02-2012,Andrea Turner,post
03-02-2012,Betty Kelly,join
03-02-2012,Donna Ryan,post
05-02-2012,Virginia Austin,post
05-02-2012,Evelyn Gordon,post
06-02-2012,Brandon Welch,post
07-02-2012,Brandon Welch,post
10-02-2012,Walter Reed,post
11-02-2012,Raymond Murray,post
13-02-2012,Brandon Welch,post
15-02-2012,Earl Carter,post
16-02-2012,Billy Martinez,post
17-02-2012,Brandon Welch,post
17-02-2012,Maria Johnston,post
18-02-2012,Earl Carter,post
21-02-2012,Philip Reed,join
21-02-2012,Louise Edwards,post
22-02-2012,Linda Price,join
22-02-2012,Lori Wilson,post
25-02-2012,Jean Gray,join
25-02-2012,Benjamin Long,post
26-02-2012,Brandon Welch,post
26-02-2012,Harold Sanchez,join
26-02-2012,Nicholas Parker,post
27-02-2012,Brandon Welch,post
28-02-2012,Pamela Stone,post
29-02-2012,Katherine Warren,join
29-02-2012,Lois Bell,post
01-03-2012,Andrea Turner,post
02-03-2012,Janet Mitchell,post
03-03-2012,Maria Johnston,post
04-03-2012,Maria Johnston,post
07-03-2012,Earl Carter,post
08-03-2012,Kimberly Welch,join
08-03-2012,Samuel Harrison,post
11-03-2012,Earl Carter,post
14-03-2012,Brandon Welch,post
14-03-2012,Earl Carter,post
14-03-2012,Raymond Murray,post
15-03-2012,Brandon Welch,post
16-03-2012,Walter Reed,post
19-03-2012,Brandon Welch,post
19-03-2012,Andrea Turner,post
20-03-2012,Bobby Medina,join
20-03-2012,Carolyn Peters,post
21-03-2012,Maria Johnston,post
23-03-2012,Maria Johnston,post
25-03-2012,Philip Reed,post
26-03-2012,Lois Bell,post
27-03-2012,Walter Reed,post
28-03-2012,Virginia Austin,post
01-04-2012,Brandon Welch,post
07-04-2012,Clarence Ward,join
07-04-2012,Janet Murphy,post
10-04-2012,Jeremy Harrison,join
10-04-2012,Harold Sanchez,post
12-04-2012,Maria Johnston,post
13-04-2012,Virginia Austin,post
13-04-2012,Craig Wells,join
13-04-2012,Daniel Garza,post
15-04-2012,James Wheeler,post
16-04-2012,Billy Martinez,post
17-04-2012,Andrea Turner,post
18-04-2012,Billy Martinez,post
18-04-2012,Deborah Mccoy,join
18-04-2012,Deborah Mccoy,post
21-04-2012,Brandon Welch,post
21-04-2012,Maria Johnston,post
21-04-2012,Joshua Marshall,post
23-04-2012,Joe Cole,join
23-04-2012,Rachel Greene,post
24-04-2012,Maria Johnston,post
25-04-2012,Katherine Warren,post
26-04-2012,Earl Carter,post
27-04-2012,Joshua Marshall,post
29-04-2012,Andrea Turner,post
29-04-2012,Sharon Carpenter,join
29-04-2012,Dorothy Kelly,post
01-05-2012,Brandon Welch,post
01-05-2012,George Thompson,post
02-05-2012,Brandon Welch,post
02-05-2012,Terry Wallace,post
03-05-2012,Katherine Warren,post
04-05-2012,Brandon Welch,post
04-05-2012,Angela Davis,join
04-05-2012,Janet Murphy,post
06-05-2012,Joshua Marshall,post
07-05-2012,Virginia Austin,post
07-05-2012,Christopher Mason,join
07-05-2012,Phyllis Hamilton,post
08-05-2012,Brandon Welch,post
11-05-2012,Brandon Welch,post
11-05-2012,Maria Johnston,post
11-05-2012,Donna Ryan,post
12-05-2012,Maria Johnston,post
13-05-2012,Gerald Reynolds,join
13-05-2012,Bobby Medina,post
17-05-2012,Earl Carter,post
17-05-2012,Sharon Carpenter,post
18-05-2012,Deborah Burke,join
18-05-2012,Joe Cole,post
19-05-2012,Brandon Welch,post
20-05-2012,Virginia Austin,post
20-05-2012,Dorothy Gray,post
22-05-2012,Earl Carter,post
23-05-2012,Matthew Watkins,post
24-05-2012,Teresa Nichols,join
24-05-2012,Bruce Wells,post
25-05-2012,Brandon Welch,post
25-05-2012,Billy Martinez,post
26-05-2012,Andrea Turner,post
26-05-2012,Janet Mitchell,post
27-05-2012,Evelyn Gordon,post
28-05-2012,Nancy Moreno,join
28-05-2012,Joe Cole,post
01-06-2012,Earl Carter,post
01-06-2012,Christopher Garza,join
01-06-2012,Betty Kelly,post
02-06-2012,Brandon Welch,post
03-06-2012,Jeffrey Day,join
03-06-2012,Bobby Willis,post
04-06-2012,Brandon Welch,post
05-06-2012,Andrea Turner,post
06-06-2012,Bobby Willis,post
07-06-2012,Jeremy Harrison,post
08-06-2012,Amy Peterson,post
09-06-2012,Maria Johnston,post
09-06-2012,Dorothy Gray,post
10-06-2012,Janet Mitchell,post
12-06-2012,Andrea Turner,post
13-06-2012,Brandon Welch,post
14-06-2012,Maria Johnston,post
15-06-2012,Christopher Garza,post
19-06-2012,Jean Gray,post
22-06-2012,Brandon Welch,post
25-06-2012,Earl Carter,post
25-06-2012,Willie Washington,post
27-06-2012,Earl Carter,post
27-06-2012,Kathleen Fox,join
27-06-2012,Teresa Nichols,post
28-06-2012,Joseph Wells,post
29-06-2012,Kevin Morgan,join
29-06-2012,Lois Bell,post
30-06-2012,Jonathan Phillips,join
30-06-2012,Sharon Carpenter,post
02-07-2012,Virginia Austin,post
02-07-2012,Earl Stewart,post
03-07-2012,Phyllis Hamilton,post
04-07-2012,Billy Martinez,post
04-07-2012,Theresa Garcia,join
04-07-2012,Christopher Mason,post
05-07-2012,Earl Carter,post
05-07-2012,Adam Bishop,join
05-07-2012,Willie Washington,post
06-07-2012,Billy Martinez,post
07-07-2012,Douglas Bradley,join
07-07-2012,Mildred Martinez,post
08-07-2012,Brandon Welch,post
08-07-2012,Adam Bishop,post
10-07-2012,Paula Hughes,join
10-07-2012,Chris Bell,post
13-07-2012,Daniel Wheeler,post
14-07-2012,Brandon Welch,post
15-07-2012,Andrea Turner,post
16-07-2012,Chris Bell,post
17-07-2012,Tammy Myers,join
17-07-2012,Julie Carroll,post
19-07-2012,Billy Martinez,post
19-07-2012,Angela Davis,post
20-07-2012,Maria Johnston,post
21-07-2012,Bobby Hill,join
21-07-2012,Amy Peterson,post
22-07-2012,Maria Johnston,post
24-07-2012,Terry Wallace,post
25-07-2012,Sharon Carpenter,post
30-07-2012,Earl Carter,post
31-07-2012,Linda Price,post
01-08-2012,Michael Ortiz,join
01-08-2012,Carolyn Peters,post
02-08-2012,Billy Martinez,post
02-08-2012,Gary Wheeler,join
02-08-2012,Keith Jackson,post
03-08-2012,Amy Gray,post
04-08-2012,Roy Smith,join
04-08-2012,Gerald Reynolds,post
05-08-2012,Ernest Harper,join
05-08-2012,Melissa Nelson,post
07-08-2012,Virginia Austin,post
08-08-2012,Billy Martinez,post
08-08-2012,Philip Reed,post
12-08-2012,Brandon Welch,post
12-08-2012,Billy Martinez,post
12-08-2012,Sean Jackson,join
12-08-2012,Kevin Morgan,post
13-08-2012,Billy Martinez,post
14-08-2012,Matthew Reyes,join
14-08-2012,Harold Sanchez,post
15-08-2012,Earl Carter,post
16-08-2012,Patrick Medina,post
17-08-2012,Maria Johnston,post
19-08-2012,Brandon Welch,post
21-08-2012,Maria Johnston,post
21-08-2012,Ernest Day,join
21-08-2012,Anna Ward,post
24-08-2012,Clarence Peters,join
24-08-2012,Bobby Medina,post
25-08-2012,Maria Johnston,post
25-08-2012,Deborah Burke,post
26-08-2012,Andrea Turner,post
26-08-2012,Terry Wallace,post
28-08-2012,Brandon Welch,post
28-08-2012,Linda Price,post
29-08-2012,Earl Carter,post
01-09-2012,Beverly Griffin,join
01-09-2012,Beverly Griffin,post
02-09-2012,Ernest Murphy,join
02-09-2012,Samuel Harrison,post
07-09-2012,Benjamin Long,post
08-09-2012,Virginia Austin,post
09-09-2012,Brandon Welch,post
09-09-2012,Maria Johnston,post
09-09-2012,Johnny Hart,join
09-09-2012,Janet Mitchell,post
10-09-2012,Nancy Moreno,post
11-09-2012,Virginia Austin,post
11-09-2012,Janice Edwards,join
11-09-2012,Ernest Harper,post
12-09-2012,Andrea Turner,post
12-09-2012,Thomas Medina,join
12-09-2012,Daniel Wheeler,post
13-09-2012,Billy Martinez,post
14-09-2012,Maria Johnston,post
15-09-2012,Michelle Rice,join
15-09-2012,Janet Murphy,post
16-09-2012,Joseph Ford,join
16-09-2012,Cheryl Mills,post
18-09-2012,Brandon Welch,post
22-09-2012,Alice Payne,post
25-09-2012,Albert Ray,join
25-09-2012,Johnny Hart,post
26-09-2012,Virginia Austin,post
26-09-2012,Clarence Peters,post
27-09-2012,Virginia Austin,post
28-09-2012,Ashley Snyder,join
28-09-2012,Terry Wallace,post
30-09-2012,Michelle Rice,post
01-10-2012,Brandon Welch,post
01-10-2012,Randy Sanchez,join
01-10-2012,Kevin Morgan,post
03-10-2012,Adam Stone,join
03-10-2012,Sean Jackson,post
04-10-2012,Bruce Wells,post
05-10-2012,Brandon Welch,post
