datetime,user_name,action_type,,,,,,,,,
03-04-2011,Matthew Reyes,post,,,,,,,,,
04-04-2011,Matthew Reyes,post,,,,,,,,,
05-04-2011,Matthew Reyes,post,,,,,,,,,
06-04-2011,Matthew Reyes,post,,,,,,,,,
07-04-2011,Matthew Reyes,post,,,,,,,,,
07-04-2011,Stephen Lewis,join,,,,,,,,,
07-04-2011,Stephen Lewis,post,,,,,,,,,
08-04-2011,Matthew Reyes,post,,,,,,,,,
09-04-2011,Matthew Reyes,post,,,,,,,,,
09-04-2011,Frank Sims,post,,,,,,,,,
10-04-2011,Matthew Reyes,post,,,,,,,,,
11-04-2011,Matthew Reyes,post,,,,,,,,,
12-04-2011,Matthew Reyes,post,,,,,,,,,
13-04-2011,Matthew Reyes,post,,,,,,,,,
14-04-2011,Matthew Reyes,post,,,,,,,,,
15-04-2011,Matthew Reyes,post,,,,,,,,,
15-04-2011,Doris Hayes,join,,,,,,,,,
15-04-2011,Stephen Lewis,post,,,,,,,,,
16-04-2011,Matthew Reyes,post,,,,,,,,,
19-04-2011,Matthew Reyes,post,,,,,,,,,
20-04-2011,Matthew Reyes,post,,,,,,,,,
21-04-2011,Matthew Reyes,post,,,,,,,,,
23-04-2011,Matthew Reyes,post,,,,,,,,,
24-04-2011,Matthew Reyes,post,,,,,,,,,
26-04-2011,Matthew Reyes,post,,,,,,,,,
27-04-2011,Matthew Reyes,post,,,,,,,,,
28-04-2011,Matthew Reyes,post,,,,,,,,,
29-04-2011,Matthew Reyes,post,,,,,,,,,
30-04-2011,Matthew Reyes,post,,,,,,,,,
01-05-2011,Matthew Reyes,post,,,,,,,,,
02-05-2011,Matthew Reyes,post,,,,,,,,,
03-05-2011,Matthew Reyes,post,,,,,,,,,
04-05-2011,Matthew Reyes,post,,,,,,,,,
05-05-2011,Matthew Reyes,post,,,,,,,,,
06-05-2011,Matthew Reyes,post,,,,,,,,,
07-05-2011,Matthew Reyes,post,,,,,,,,,
08-05-2011,Matthew Reyes,post,,,,,,,,,
08-05-2011,Lillian Turner,post,,,,,,,,,
09-05-2011,Matthew Reyes,post,,,,,,,,,
10-05-2011,Matthew Reyes,post,,,,,,,,,
11-05-2011,Matthew Reyes,post,,,,,,,,,
12-05-2011,Matthew Reyes,post,,,,,,,,,
13-05-2011,Matthew Reyes,post,,,,,,,,,
14-05-2011,Matthew Reyes,post,,,,,,,,,
15-05-2011,Matthew Reyes,post,,,,,,,,,
16-05-2011,Matthew Reyes,post,,,,,,,,,
17-05-2011,Matthew Reyes,post,,,,,,,,,
18-05-2011,Matthew Reyes,post,,,,,,,,,
19-05-2011,Matthew Reyes,post,,,,,,,,,
20-05-2011,Matthew Reyes,post,,,,,,,,,
21-05-2011,Matthew Reyes,post,,,,,,,,,
21-05-2011,Janice Fisher,join,,,,,,,,,
21-05-2011,Janice Fisher,post,,,,,,,,,
22-05-2011,Matthew Reyes,post,,,,,,,,,
23-05-2011,Matthew Reyes,post,,,,,,,,,
24-05-2011,Matthew Reyes,post,,,,,,,,,
25-05-2011,Matthew Reyes,post,,,,,,,,,
26-05-2011,Matthew Reyes,post,,,,,,,,,
27-05-2011,Matthew Reyes,post,,,,,,,,,
28-05-2011,Matthew Reyes,post,,,,,,,,,
29-05-2011,Matthew Reyes,post,,,,,,,,,
30-05-2011,Matthew Reyes,post,,,,,,,,,
31-05-2011,Matthew Reyes,post,,,,,,,,,
01-06-2011,Matthew Reyes,post,,,,,,,,,
01-06-2011,Gloria Cruz,post,,,,,,,,,
02-06-2011,Matthew Reyes,post,,,,,,,,,
03-06-2011,Matthew Reyes,post,,,,,,,,,
04-06-2011,Matthew Reyes,post,,,,,,,,,
05-06-2011,Matthew Reyes,post,,,,,,,,,
06-06-2011,Matthew Reyes,post,,,,,,,,,
07-06-2011,Matthew Reyes,post,,,,,,,,,
08-06-2011,Matthew Reyes,post,,,,,,,,,
09-06-2011,Matthew Reyes,post,,,,,,,,,
10-06-2011,Matthew Reyes,post,,,,,,,,,
11-06-2011,Matthew Reyes,post,,,,,,,,,
12-06-2011,Matthew Reyes,post,,,,,,,,,
15-06-2011,Matthew Reyes,post,,,,,,,,,
15-06-2011,Jeremy Carter,join,,,,,,,,,
15-06-2011,Stephen Lewis,post,,,,,,,,,
16-06-2011,Matthew Reyes,post,,,,,,,,,
17-06-2011,Matthew Reyes,post,,,,,,,,,
19-06-2011,Matthew Reyes,post,,,,,,,,,
19-06-2011,Adam Cook,join,,,,,,,,,
19-06-2011,Adam Cook,post,,,,,,,,,
20-06-2011,Matthew Reyes,post,,,,,,,,,
21-06-2011,Matthew Reyes,post,,,,,,,,,
22-06-2011,Matthew Reyes,post,,,,,,,,,
24-06-2011,Matthew Reyes,post,,,,,,,,,
25-06-2011,Matthew Reyes,post,,,,,,,,,
26-06-2011,Matthew Reyes,post,,,,,,,,,
27-06-2011,Matthew Reyes,post,,,,,,,,,
28-06-2011,Matthew Reyes,post,,,,,,,,,
29-06-2011,Matthew Reyes,post,,,,,,,,,
30-06-2011,Matthew Reyes,post,,,,,,,,,
01-07-2011,Matthew Reyes,post,,,,,,,,,
02-07-2011,Matthew Reyes,post,,,,,,,,,
03-07-2011,Matthew Reyes,post,,,,,,,,,
04-07-2011,Matthew Reyes,post,,,,,,,,,
04-07-2011,Teresa Morrison,join,,,,,,,,,
04-07-2011,Doris Hayes,post,,,,,,,,,
05-07-2011,Matthew Reyes,post,,,,,,,,,
06-07-2011,Matthew Reyes,post,,,,,,,,,
07-07-2011,Matthew Reyes,post,,,,,,,,,
07-07-2011,Martin Walker,post,,,,,,,,,
08-07-2011,Matthew Reyes,post,,,,,,,,,
09-07-2011,Matthew Reyes,post,,,,,,,,,
10-07-2011,Matthew Reyes,post,,,,,,,,,
11-07-2011,Matthew Reyes,post,,,,,,,,,
12-07-2011,Matthew Reyes,post,,,,,,,,,
13-07-2011,Matthew Reyes,post,,,,,,,,,
14-07-2011,Matthew Reyes,post,,,,,,,,,
15-07-2011,Matthew Reyes,post,,,,,,,,,
16-07-2011,Matthew Reyes,post,,,,,,,,,
17-07-2011,Matthew Reyes,post,,,,,,,,,
18-07-2011,Matthew Reyes,post,,,,,,,,,
20-07-2011,Matthew Reyes,post,,,,,,,,,
21-07-2011,Matthew Reyes,post,,,,,,,,,
22-07-2011,Matthew Reyes,post,,,,,,,,,
23-07-2011,Matthew Reyes,post,,,,,,,,,
24-07-2011,Matthew Reyes,post,,,,,,,,,
24-07-2011,Janice Henderson,join,,,,,,,,,
24-07-2011,Janice Henderson,post,,,,,,,,,
25-07-2011,Matthew Reyes,post,,,,,,,,,
26-07-2011,Matthew Reyes,post,,,,,,,,,
26-07-2011,Jane Mcdonald,join,,,,,,,,,
26-07-2011,Adam Cook,post,,,,,,,,,
27-07-2011,Matthew Reyes,post,,,,,,,,,
28-07-2011,Matthew Reyes,post,,,,,,,,,
29-07-2011,Matthew Reyes,post,,,,,,,,,
30-07-2011,Matthew Reyes,post,,,,,,,,,
30-07-2011,Alice Payne,join,,,,,,,,,
30-07-2011,Teresa Morrison,post,,,,,,,,,
31-07-2011,Matthew Reyes,post,,,,,,,,,
01-08-2011,Matthew Reyes,post,,,,,,,,,
02-08-2011,Matthew Reyes,post,,,,,,,,,
02-08-2011,Christina Hunt,post,,,,,,,,,
03-08-2011,Matthew Reyes,post,,,,,,,,,
03-08-2011,Lillian Turner,post,,,,,,,,,
04-08-2011,Matthew Reyes,post,,,,,,,,,
05-08-2011,Matthew Reyes,post,,,,,,,,,
06-08-2011,Matthew Reyes,post,,,,,,,,,
07-08-2011,Matthew Reyes,post,,,,,,,,,
08-08-2011,Matthew Reyes,post,,,,,,,,,
09-08-2011,Matthew Reyes,post,,,,,,,,,
10-08-2011,Matthew Reyes,post,,,,,,,,,
12-08-2011,Matthew Reyes,post,,,,,,,,,
13-08-2011,Matthew Reyes,post,,,,,,,,,
15-08-2011,Matthew Reyes,post,,,,,,,,,
16-08-2011,Matthew Reyes,post,,,,,,,,,
17-08-2011,Matthew Reyes,post,,,,,,,,,
18-08-2011,Matthew Reyes,post,,,,,,,,,
19-08-2011,Matthew Reyes,post,,,,,,,,,
20-08-2011,Matthew Reyes,post,,,,,,,,,
21-08-2011,Matthew Reyes,post,,,,,,,,,
21-08-2011,Martin Walker,post,,,,,,,,,
22-08-2011,Matthew Reyes,post,,,,,,,,,
23-08-2011,Matthew Reyes,post,,,,,,,,,
24-08-2011,Matthew Reyes,post,,,,,,,,,
25-08-2011,Matthew Reyes,post,,,,,,,,,
26-08-2011,Matthew Reyes,post,,,,,,,,,
27-08-2011,Matthew Reyes,post,,,,,,,,,
28-08-2011,Matthew Reyes,post,,,,,,,,,
29-08-2011,Matthew Reyes,post,,,,,,,,,
30-08-2011,Matthew Reyes,post,,,,,,,,,
01-09-2011,Matthew Reyes,post,,,,,,,,,
02-09-2011,Matthew Reyes,post,,,,,,,,,
03-09-2011,Matthew Reyes,post,,,,,,,,,
07-09-2011,Matthew Reyes,post,,,,,,,,,
07-09-2011,Lillian Turner,post,,,,,,,,,
08-09-2011,Matthew Reyes,post,,,,,,,,,
09-09-2011,Matthew Reyes,post,,,,,,,,,
10-09-2011,Matthew Reyes,post,,,,,,,,,
11-09-2011,Matthew Reyes,post,,,,,,,,,
12-09-2011,Matthew Reyes,post,,,,,,,,,
13-09-2011,Matthew Reyes,post,,,,,,,,,
14-09-2011,Matthew Reyes,post,,,,,,,,,
16-09-2011,Matthew Reyes,post,,,,,,,,,
17-09-2011,Matthew Reyes,post,,,,,,,,,
18-09-2011,Matthew Reyes,post,,,,,,,,,
19-09-2011,Matthew Reyes,post,,,,,,,,,
20-09-2011,Matthew Reyes,post,,,,,,,,,
20-09-2011,Christina Hunt,post,,,,,,,,,
20-09-2011,Harry Harris,join,,,,,,,,,
20-09-2011,Doris Hayes,post,,,,,,,,,
22-09-2011,Matthew Reyes,post,,,,,,,,,
23-09-2011,Matthew Reyes,post,,,,,,,,,
24-09-2011,Matthew Reyes,post,,,,,,,,,
25-09-2011,Matthew Reyes,post,,,,,,,,,
26-09-2011,Matthew Reyes,post,,,,,,,,,
27-09-2011,Matthew Reyes,post,,,,,,,,,
28-09-2011,Matthew Reyes,post,,,,,,,,,
29-09-2011,Matthew Reyes,post,,,,,,,,,
29-09-2011,Lillian Turner,post,,,,,,,,,
30-09-2011,Matthew Reyes,post,,,,,,,,,
01-10-2011,Matthew Reyes,post,,,,,,,,,
02-10-2011,Matthew Reyes,post,,,,,,,,,
03-10-2011,Matthew Reyes,post,,,,,,,,,
04-10-2011,Matthew Reyes,post,,,,,,,,,
05-10-2011,Matthew Reyes,post,,,,,,,,,
06-10-2011,Matthew Reyes,post,,,,,,,,,
07-10-2011,Matthew Reyes,post,,,,,,,,,
07-10-2011,Lillian Turner,post,,,,,,,,,
08-10-2011,Matthew Reyes,post,,,,,,,,,
09-10-2011,Matthew Reyes,post,,,,,,,,,
09-10-2011,Samuel Jacobs,join,,,,,,,,,
09-10-2011,Teresa Morrison,post,,,,,,,,,
10-10-2011,Matthew Reyes,post,,,,,,,,,
11-10-2011,Matthew Reyes,post,,,,,,,,,
12-10-2011,Matthew Reyes,post,,,,,,,,,
12-10-2011,Christina Hunt,post,,,,,,,,,
13-10-2011,Matthew Reyes,post,,,,,,,,,
14-10-2011,Matthew Reyes,post,,,,,,,,,
15-10-2011,Matthew Reyes,post,,,,,,,,,
16-10-2011,Matthew Reyes,post,,,,,,,,,
17-10-2011,Matthew Reyes,post,,,,,,,,,
17-10-2011,Lawrence King,join,,,,,,,,,
17-10-2011,Teresa Morrison,post,,,,,,,,,
18-10-2011,Matthew Reyes,post,,,,,,,,,
19-10-2011,Frank Sims,post,,,,,,,,,
20-10-2011,Stephen Lewis,post,,,,,,,,,
21-10-2011,Matthew Reyes,post,,,,,,,,,
22-10-2011,Martin Walker,post,,,,,,,,,
24-10-2011,Matthew Reyes,post,,,,,,,,,
25-10-2011,Matthew Reyes,post,,,,,,,,,
25-10-2011,Doris Hayes,post,,,,,,,,,
26-10-2011,Matthew Reyes,post,,,,,,,,,
27-10-2011,Matthew Reyes,post,,,,,,,,,
27-10-2011,Gloria Cruz,post,,,,,,,,,
29-10-2011,Matthew Reyes,post,,,,,,,,,
30-10-2011,Raymond Freeman,join,,,,,,,,,
30-10-2011,Stephen Lewis,post,,,,,,,,,
31-10-2011,Matthew Reyes,post,,,,,,,,,
01-11-2011,Christina Hunt,post,,,,,,,,,
02-11-2011,Matthew Reyes,post,,,,,,,,,
03-11-2011,Matthew Reyes,post,,,,,,,,,
03-11-2011,Frank Sims,post,,,,,,,,,
04-11-2011,Matthew Reyes,post,,,,,,,,,
05-11-2011,Lillian Turner,post,,,,,,,,,
06-11-2011,Matthew Reyes,post,,,,,,,,,
07-11-2011,Matthew Reyes,post,,,,,,,,,
09-11-2011,Jeremy Carter,post,,,,,,,,,
10-11-2011,Matthew Reyes,post,,,,,,,,,
11-11-2011,Matthew Reyes,post,,,,,,,,,
12-11-2011,Matthew Reyes,post,,,,,,,,,
13-11-2011,Matthew Reyes,post,,,,,,,,,
13-11-2011,Martin Walker,post,,,,,,,,,
14-11-2011,Janice Fisher,post,,,,,,,,,
15-11-2011,Matthew Reyes,post,,,,,,,,,
15-11-2011,Jeremy Carter,post,,,,,,,,,
16-11-2011,Matthew Reyes,post,,,,,,,,,
17-11-2011,Matthew Reyes,post,,,,,,,,,
17-11-2011,Janet Gibson,join,,,,,,,,,
17-11-2011,Alice Payne,post,,,,,,,,,
18-11-2011,Matthew Reyes,post,,,,,,,,,
19-11-2011,Matthew Reyes,post,,,,,,,,,
21-11-2011,Matthew Reyes,post,,,,,,,,,
21-11-2011,Gloria Cruz,post,,,,,,,,,
22-11-2011,Matthew Reyes,post,,,,,,,,,
23-11-2011,Frank Sims,post,,,,,,,,,
23-11-2011,Diana Roberts,join,,,,,,,,,
23-11-2011,Harry Harris,post,,,,,,,,,
24-11-2011,Matthew Reyes,post,,,,,,,,,
25-11-2011,Matthew Reyes,post,,,,,,,,,
26-11-2011,Matthew Reyes,post,,,,,,,,,
27-11-2011,Matthew Reyes,post,,,,,,,,,
28-11-2011,Matthew Reyes,post,,,,,,,,,
29-11-2011,Samuel Harrison,join,,,,,,,,,
29-11-2011,Lawrence King,post,,,,,,,,,
30-11-2011,Matthew Reyes,post,,,,,,,,,
30-11-2011,Martin Walker,post,,,,,,,,,
01-12-2011,Matthew Reyes,post,,,,,,,,,
02-12-2011,Matthew Reyes,post,,,,,,,,,
03-12-2011,Lillian Turner,post,,,,,,,,,
04-12-2011,Martin Taylor,join,,,,,,,,,
04-12-2011,Diana Roberts,post,,,,,,,,,
05-12-2011,Matthew Reyes,post,,,,,,,,,
06-12-2011,Matthew Reyes,post,,,,,,,,,
07-12-2011,Matthew Reyes,post,,,,,,,,,
09-12-2011,Matthew Reyes,post,,,,,,,,,
10-12-2011,Matthew Reyes,post,,,,,,,,,
10-12-2011,Diana Roberts,post,,,,,,,,,
13-12-2011,Matthew Reyes,post,,,,,,,,,
14-12-2011,Frank Sims,post,,,,,,,,,
14-12-2011,Stephen Lewis,post,,,,,,,,,
15-12-2011,Matthew Reyes,post,,,,,,,,,
16-12-2011,Matthew Reyes,post,,,,,,,,,
16-12-2011,Lillian Turner,post,,,,,,,,,
17-12-2011,Frank Sims,post,,,,,,,,,
18-12-2011,Matthew Reyes,post,,,,,,,,,
23-12-2011,Matthew Reyes,post,,,,,,,,,
23-12-2011,Christina Hunt,post,,,,,,,,,
25-12-2011,Matthew Reyes,post,,,,,,,,,
27-12-2011,Dennis Torres,join,,,,,,,,,
27-12-2011,Janice Henderson,post,,,,,,,,,
28-12-2011,Matthew Reyes,post,,,,,,,,,
28-12-2011,Martin Walker,post,,,,,,,,,
29-12-2011,Matthew Reyes,post,,,,,,,,,
29-12-2011,Christina Hunt,post,,,,,,,,,
30-12-2011,Matthew Reyes,post,,,,,,,,,
31-12-2011,Matthew Reyes,post,,,,,,,,,
31-12-2011,Samuel Harrison,post,,,,,,,,,
01-01-2012,Matthew Reyes,post,,,,,,,,,
03-01-2012,Matthew Reyes,post,,,,,,,,,
05-01-2012,Frank Sims,post,,,,,,,,,
06-01-2012,Matthew Reyes,post,,,,,,,,,
07-01-2012,Matthew Reyes,post,,,,,,,,,
07-01-2012,Martin Walker,post,,,,,,,,,
07-01-2012,Janice Fisher,post,,,,,,,,,
08-01-2012,Matthew Reyes,post,,,,,,,,,
09-01-2012,Matthew Reyes,post,,,,,,,,,
10-01-2012,Matthew Reyes,post,,,,,,,,,
10-01-2012,Christina Hunt,post,,,,,,,,,
11-01-2012,Matthew Reyes,post,,,,,,,,,
11-01-2012,Gloria Cruz,post,,,,,,,,,
12-01-2012,Matthew Reyes,post,,,,,,,,,
12-01-2012,Frank Sims,post,,,,,,,,,
12-01-2012,Samuel Jacobs,post,,,,,,,,,
14-01-2012,Matthew Reyes,post,,,,,,,,,
15-01-2012,Matthew Reyes,post,,,,,,,,,
16-01-2012,Matthew Reyes,post,,,,,,,,,
17-01-2012,Matthew Reyes,post,,,,,,,,,
17-01-2012,Gloria Cruz,post,,,,,,,,,
18-01-2012,Carol Greene,join,,,,,,,,,
18-01-2012,Raymond Freeman,post,,,,,,,,,
19-01-2012,Matthew Reyes,post,,,,,,,,,
19-01-2012,Lillian Turner,post,,,,,,,,,
20-01-2012,Matthew Reyes,post,,,,,,,,,
20-01-2012,Rebecca Russell,join,,,,,,,,,
20-01-2012,Martin Taylor,post,,,,,,,,,
21-01-2012,Matthew Reyes,post,,,,,,,,,
26-01-2012,Janice Fisher,post,,,,,,,,,
27-01-2012,Gloria Cruz,post,,,,,,,,,
28-01-2012,Matthew Reyes,post,,,,,,,,,
29-01-2012,Matthew Reyes,post,,,,,,,,,
29-01-2012,Dennis Torres,post,,,,,,,,,
30-01-2012,Rebecca Young,join,,,,,,,,,
30-01-2012,Lawrence King,post,,,,,,,,,
31-01-2012,Matthew Reyes,post,,,,,,,,,
31-01-2012,Frank Sims,post,,,,,,,,,
31-01-2012,Jane Mcdonald,post,,,,,,,,,
01-02-2012,Matthew Reyes,post,,,,,,,,,
02-02-2012,Lillian Turner,post,,,,,,,,,
02-02-2012,Sarah Baker,join,,,,,,,,,
02-02-2012,Jane Mcdonald,post,,,,,,,,,
03-02-2012,Matthew Reyes,post,,,,,,,,,
05-02-2012,Martin Walker,post,,,,,,,,,
06-02-2012,Gloria Cruz,post,,,,,,,,,
06-02-2012,Janice Henderson,post,,,,,,,,,
08-02-2012,Matthew Reyes,post,,,,,,,,,
09-02-2012,Teresa Morrison,post,,,,,,,,,
10-02-2012,Matthew Reyes,post,,,,,,,,,
10-02-2012,Christina Hunt,post,,,,,,,,,
14-02-2012,Matthew Reyes,post,,,,,,,,,
15-02-2012,Martin Walker,post,,,,,,,,,
16-02-2012,Matthew Reyes,post,,,,,,,,,
16-02-2012,Christina Hunt,post,,,,,,,,,
17-02-2012,Matthew Reyes,post,,,,,,,,,
18-02-2012,Matthew Reyes,post,,,,,,,,,
18-02-2012,Martin Walker,post,,,,,,,,,
18-02-2012,Henry Harris,join,,,,,,,,,
18-02-2012,Harry Harris,post,,,,,,,,,
19-02-2012,Matthew Reyes,post,,,,,,,,,
20-02-2012,Lillian Turner,post,,,,,,,,,
21-02-2012,Lillian Turner,post,,,,,,,,,
22-02-2012,Matthew Reyes,post,,,,,,,,,
24-02-2012,Matthew Reyes,post,,,,,,,,,
25-02-2012,Matthew Reyes,post,,,,,,,,,
26-02-2012,Adam Cook,post,,,,,,,,,
27-02-2012,Matthew Reyes,post,,,,,,,,,
28-02-2012,Frank Sims,post,,,,,,,,,
03-03-2012,Matthew Reyes,post,,,,,,,,,
03-03-2012,Martin Walker,post,,,,,,,,,
04-03-2012,Matthew Reyes,post,,,,,,,,,
04-03-2012,Frank Sims,post,,,,,,,,,
04-03-2012,Wanda Henderson,join,,,,,,,,,
04-03-2012,Rebecca Young,post,,,,,,,,,
05-03-2012,Rebecca Young,post,,,,,,,,,
06-03-2012,Frank Sims,post,,,,,,,,,
07-03-2012,Matthew Reyes,post,,,,,,,,,
09-03-2012,Matthew Reyes,post,,,,,,,,,
11-03-2012,Matthew Reyes,post,,,,,,,,,
12-03-2012,Martin Walker,post,,,,,,,,,
13-03-2012,Matthew Reyes,post,,,,,,,,,
14-03-2012,Richard Vasquez,join,,,,,,,,,
14-03-2012,Janice Henderson,post,,,,,,,,,
15-03-2012,Matthew Reyes,post,,,,,,,,,
17-03-2012,Matthew Reyes,post,,,,,,,,,
17-03-2012,Lillian Turner,post,,,,,,,,,
18-03-2012,Matthew Reyes,post,,,,,,,,,
18-03-2012,Rebecca Russell,post,,,,,,,,,
19-03-2012,Matthew Reyes,post,,,,,,,,,
21-03-2012,Matthew Reyes,post,,,,,,,,,
21-03-2012,Gloria Cruz,post,,,,,,,,,
22-03-2012,Matthew Reyes,post,,,,,,,,,
25-03-2012,Matthew Reyes,post,,,,,,,,,
25-03-2012,Christina Hunt,post,,,,,,,,,
26-03-2012,Matthew Reyes,post,,,,,,,,,
27-03-2012,Matthew Reyes,post,,,,,,,,,
28-03-2012,Matthew Reyes,post,,,,,,,,,
28-03-2012,Dennis Torres,post,,,,,,,,,
29-03-2012,Matthew Reyes,post,,,,,,,,,
29-03-2012,Martin Walker,post,,,,,,,,,
31-03-2012,Matthew Reyes,post,,,,,,,,,
01-04-2012,Matthew Reyes,post,,,,,,,,,
01-04-2012,Christina Hunt,post,,,,,,,,,
02-04-2012,Matthew Reyes,post,,,,,,,,,
04-04-2012,Matthew Reyes,post,,,,,,,,,
05-04-2012,Matthew Reyes,post,,,,,,,,,
05-04-2012,Martin Walker,post,,,,,,,,,
06-04-2012,Matthew Reyes,post,,,,,,,,,
06-04-2012,Gloria Cruz,post,,,,,,,,,
06-04-2012,Carlos Greene,join,,,,,,,,,
06-04-2012,Raymond Freeman,post,,,,,,,,,
07-04-2012,Matthew Reyes,post,,,,,,,,,
07-04-2012,Christina Hunt,post,,,,,,,,,
08-04-2012,Matthew Reyes,post,,,,,,,,,
12-04-2012,Matthew Reyes,post,,,,,,,,,
12-04-2012,Richard Vasquez,post,,,,,,,,,
13-04-2012,Matthew Reyes,post,,,,,,,,,
14-04-2012,Matthew Reyes,post,,,,,,,,,
15-04-2012,Matthew Reyes,post,,,,,,,,,
16-04-2012,Matthew Reyes,post,,,,,,,,,
16-04-2012,Martin Walker,post,,,,,,,,,
17-04-2012,Matthew Reyes,post,,,,,,,,,
17-04-2012,Gloria Cruz,post,,,,,,,,,
19-04-2012,Matthew Reyes,post,,,,,,,,,
23-04-2012,Matthew Reyes,post,,,,,,,,,
24-04-2012,Matthew Reyes,post,,,,,,,,,
25-04-2012,Christina Hunt,post,,,,,,,,,
26-04-2012,Matthew Reyes,post,,,,,,,,,
26-04-2012,Frank Sims,post,,,,,,,,,
27-04-2012,Matthew Reyes,post,,,,,,,,,
27-04-2012,Lillian Turner,post,,,,,,,,,
28-04-2012,Frank Sims,post,,,,,,,,,
29-04-2012,Frank Sims,post,,,,,,,,,
30-04-2012,Henry Harris,post,,,,,,,,,
01-05-2012,Matthew Reyes,post,,,,,,,,,
01-05-2012,Frank Sims,post,,,,,,,,,
01-05-2012,Jean Adams,join,,,,,,,,,
01-05-2012,Jane Mcdonald,post,,,,,,,,,
05-05-2012,Christina Hunt,post,,,,,,,,,
06-05-2012,Matthew Reyes,post,,,,,,,,,
07-05-2012,Matthew Reyes,post,,,,,,,,,
08-05-2012,Matthew Reyes,post,,,,,,,,,
09-05-2012,Matthew Reyes,post,,,,,,,,,
10-05-2012,Matthew Reyes,post,,,,,,,,,
10-05-2012,Raymond Freeman,post,,,,,,,,,
11-05-2012,Frank Sims,post,,,,,,,,,
12-05-2012,Matthew Reyes,post,,,,,,,,,
12-05-2012,Frank Sims,post,,,,,,,,,
13-05-2012,Matthew Reyes,post,,,,,,,,,
14-05-2012,Matthew Reyes,post,,,,,,,,,
15-05-2012,Matthew Reyes,post,,,,,,,,,
16-05-2012,Matthew Reyes,post,,,,,,,,,
16-05-2012,Christina Hunt,post,,,,,,,,,
16-05-2012,Todd Morales,join,,,,,,,,,
16-05-2012,Teresa Morrison,post,,,,,,,,,
17-05-2012,Matthew Reyes,post,,,,,,,,,
17-05-2012,Philip Hamilton,join,,,,,,,,,
17-05-2012,Teresa Morrison,post,,,,,,,,,
18-05-2012,Gloria Cruz,post,,,,,,,,,
20-05-2012,Christina Hunt,post,,,,,,,,,
21-05-2012,Lillian Turner,post,,,,,,,,,
21-05-2012,Jean Henderson,join,,,,,,,,,
21-05-2012,Jean Henderson,post,,,,,,,,,
22-05-2012,Matthew Reyes,post,,,,,,,,,
25-05-2012,Matthew Reyes,post,,,,,,,,,
26-05-2012,Elizabeth Harris,join,,,,,,,,,
26-05-2012,Wanda Henderson,post,,,,,,,,,
27-05-2012,Matthew Reyes,post,,,,,,,,,
27-05-2012,Frank Sims,post,,,,,,,,,
28-05-2012,Matthew Reyes,post,,,,,,,,,
28-05-2012,Sarah Baker,post,,,,,,,,,
30-05-2012,Adam Cook,post,,,,,,,,,
01-06-2012,Matthew Reyes,post,,,,,,,,,
02-06-2012,Elizabeth Harris,post,,,,,,,,,
04-06-2012,Matthew Reyes,post,,,,,,,,,
04-06-2012,Christina Hunt,post,,,,,,,,,
04-06-2012,Stephen Lewis,post,,,,,,,,,
05-06-2012,Matthew Reyes,post,,,,,,,,,
06-06-2012,Matthew Reyes,post,,,,,,,,,
07-06-2012,Lillian Turner,post,,,,,,,,,
08-06-2012,Sarah Baker,post,,,,,,,,,
09-06-2012,Richard Vasquez,post,,,,,,,,,
10-06-2012,Matthew Reyes,post,,,,,,,,,
12-06-2012,Matthew Reyes,post,,,,,,,,,
12-06-2012,Martin Walker,post,,,,,,,,,
12-06-2012,Brenda Webb,join,,,,,,,,,
12-06-2012,Jean Adams,post,,,,,,,,,
13-06-2012,Matthew Reyes,post,,,,,,,,,
13-06-2012,Joshua Harris,join,,,,,,,,,
13-06-2012,Henry Harris,post,,,,,,,,,
14-06-2012,Matthew Reyes,post,,,,,,,,,
14-06-2012,Lillian Turner,post,,,,,,,,,
14-06-2012,Bobby Hill,join,,,,,,,,,
14-06-2012,Janice Henderson,post,,,,,,,,,
15-06-2012,Matthew Reyes,post,,,,,,,,,
16-06-2012,Matthew Reyes,post,,,,,,,,,
16-06-2012,Ernest Banks,join,,,,,,,,,
16-06-2012,Philip Hamilton,post,,,,,,,,,
17-06-2012,Matthew Reyes,post,,,,,,,,,
18-06-2012,Matthew Reyes,post,,,,,,,,,
21-06-2012,Matthew Reyes,post,,,,,,,,,
22-06-2012,Matthew Reyes,post,,,,,,,,,
23-06-2012,Matthew Reyes,post,,,,,,,,,
23-06-2012,Martin Walker,post,,,,,,,,,
24-06-2012,Gloria Cruz,post,,,,,,,,,
25-06-2012,Matthew Reyes,post,,,,,,,,,
26-06-2012,Matthew Reyes,post,,,,,,,,,
27-06-2012,Virginia Gilbert,join,,,,,,,,,
27-06-2012,Jean Adams,post,,,,,,,,,
29-06-2012,Harry Harris,post,,,,,,,,,
30-06-2012,Matthew Reyes,post,,,,,,,,,
30-06-2012,Wayne Stevens,join,,,,,,,,,
30-06-2012,Samuel Harrison,post,,,,,,,,,
01-07-2012,Matthew Reyes,post,,,,,,,,,
01-07-2012,Emily Scott,join,,,,,,,,,
01-07-2012,Rebecca Russell,post,,,,,,,,,
03-07-2012,Matthew Reyes,post,,,,,,,,,
05-07-2012,Matthew Reyes,post,,,,,,,,,
05-07-2012,Evelyn Gutierrez,join,,,,,,,,,
05-07-2012,Wanda Henderson,post,,,,,,,,,
06-07-2012,Willie Washington,join,,,,,,,,,
06-07-2012,Bobby Hill,post,,,,,,,,,
08-07-2012,Henry Harris,post,,,,,,,,,
10-07-2012,Matthew Reyes,post,,,,,,,,,
11-07-2012,Lillian Turner,post,,,,,,,,,
12-07-2012,Matthew Reyes,post,,,,,,,,,
12-07-2012,Lillian Turner,post,,,,,,,,,
13-07-2012,Matthew Reyes,post,,,,,,,,,
13-07-2012,Richard Vasquez,post,,,,,,,,,
14-07-2012,Matthew Reyes,post,,,,,,,,,
14-07-2012,Christina Hunt,post,,,,,,,,,
16-07-2012,Matthew Reyes,post,,,,,,,,,
17-07-2012,Matthew Reyes,post,,,,,,,,,
18-07-2012,Matthew Reyes,post,,,,,,,,,
19-07-2012,Matthew Reyes,post,,,,,,,,,
21-07-2012,Matthew Reyes,post,,,,,,,,,
26-07-2012,Jean Henderson,post,,,,,,,,,
27-07-2012,Frank Sims,post,,,,,,,,,
28-07-2012,Sarah Baker,post,,,,,,,,,
29-07-2012,Frank Sims,post,,,,,,,,,
29-07-2012,Harry Harris,post,,,,,,,,,
01-08-2012,Frank Sims,post,,,,,,,,,
01-08-2012,Janice Henderson,post,,,,,,,,,
02-08-2012,Christina Hunt,post,,,,,,,,,
02-08-2012,Elizabeth Harrison,join,,,,,,,,,
02-08-2012,Raymond Freeman,post,,,,,,,,,
03-08-2012,Louis Torres,join,,,,,,,,,
03-08-2012,Elizabeth Harris,post,,,,,,,,,
04-08-2012,Virginia Gilbert,post,,,,,,,,,
06-08-2012,Matthew Reyes,post,,,,,,,,,
10-08-2012,Wayne Stevens,post,,,,,,,,,
11-08-2012,Lillian Turner,post,,,,,,,,,
12-08-2012,Rebecca Coleman,join,,,,,,,,,
12-08-2012,Richard Vasquez,post,,,,,,,,,
15-08-2012,Jean Henderson,post,,,,,,,,,
16-08-2012,Carol Greene,post,,,,,,,,,
18-08-2012,Matthew Reyes,post,,,,,,,,,
21-08-2012,Martin Walker,post,,,,,,,,,
21-08-2012,Kevin Morgan,join,,,,,,,,,
21-08-2012,Philip Hamilton,post,,,,,,,,,
23-08-2012,Joshua Harris,post,,,,,,,,,
25-08-2012,Matthew Reyes,post,,,,,,,,,
29-08-2012,Frank Sims,post,,,,,,,,,
31-08-2012,Lillian Turner,post,,,,,,,,,
02-09-2012,Martin Walker,post,,,,,,,,,
03-09-2012,Adam Gonzales,join,,,,,,,,,
03-09-2012,Willie Washington,post,,,,,,,,,
06-09-2012,Larry Hayes,join,,,,,,,,,
06-09-2012,Sarah Baker,post,,,,,,,,,
08-09-2012,Martin Walker,post,,,,,,,,,
08-09-2012,Adam Cook,post,,,,,,,,,
11-09-2012,Gloria Cruz,post,,,,,,,,,
11-09-2012,Virginia Gilbert,post,,,,,,,,,
12-09-2012,Matthew Reyes,post,,,,,,,,,
12-09-2012,Rebecca Young,post,,,,,,,,,
13-09-2012,Sarah Baker,post,,,,,,,,,
15-09-2012,Joshua Harris,post,,,,,,,,,
17-09-2012,Martin Walker,post,,,,,,,,,
18-09-2012,Dennis Torres,post,,,,,,,,,
21-09-2012,Lori Wilson,join,,,,,,,,,
21-09-2012,Louis Torres,post,,,,,,,,,
22-09-2012,Larry Hayes,post,,,,,,,,,
24-09-2012,Martin Walker,post,,,,,,,,,
24-09-2012,Thomas Carpenter,join,,,,,,,,,
24-09-2012,Elizabeth Harris,post,,,,,,,,,
25-09-2012,Elizabeth Harrison,post,,,,,,,,,
26-09-2012,Frank Sims,post,,,,,,,,,
27-09-2012,Matthew Reyes,post,,,,,,,,,
27-09-2012,Kathy Greene,join,,,,,,,,,
27-09-2012,Adam Gonzales,post,,,,,,,,,
29-09-2012,Gloria Cruz,post,,,,,,,,,
30-09-2012,Gloria Cruz,post,,,,,,,,,
01-10-2012,Gloria Cruz,post,,,,,,,,,
02-10-2012,Deborah Mccoy,join,,,,,,,,,
02-10-2012,Alice Payne,post,,,,,,,,,
03-10-2012,Gloria Cruz,post,,,,,,,,,
05-10-2012,Frank Sims,post,,,,,,,,,
11-10-2012,Matthew Reyes,post,,,,,,,,,
12-10-2012,Edward Lawrence,join,,,,,,,,,
12-10-2012,Sarah Baker,post,,,,,,,,,
15-10-2012,Brenda Webb,post,,,,,,,,,
16-10-2012,Antonio Berry,join,,,,,,,,,
16-10-2012,Brenda Webb,post,,,,,,,,,
17-10-2012,Christina Hunt,post,,,,,,,,,
17-10-2012,Adam Cook,post,,,,,,,,,
18-10-2012,Christina Hunt,post,,,,,,,,,
21-10-2012,Christina Hunt,post,,,,,,,,,
22-10-2012,Adam Gonzales,post,,,,,,,,,
27-10-2012,Lillian Turner,post,,,,,,,,,
27-10-2012,Angela Davis,join,,,,,,,,,
27-10-2012,Bobby Hill,post,,,,,,,,,
28-10-2012,Matthew Reyes,post,,,,,,,,,
28-10-2012,Lawrence King,post,,,,,,,,,
29-10-2012,Sharon Nguyen,join,,,,,,,,,
29-10-2012,Evelyn Gutierrez,post,,,,,,,,,
30-10-2012,Matthew Reyes,post,,,,,,,,,
30-10-2012,Martin Walker,post,,,,,,,,,
02-11-2012,Lillian Turner,post,,,,,,,,,
02-11-2012,Louise Gray,join,,,,,,,,,
02-11-2012,Carol Greene,post,,,,,,,,,
04-11-2012,Christina Hunt,post,,,,,,,,,
05-11-2012,Matthew Reyes,post,,,,,,,,,
06-11-2012,Joshua Harris,post,,,,,,,,,
07-11-2012,Martin Walker,post,,,,,,,,,
09-11-2012,Frank Sims,post,,,,,,,,,
09-11-2012,Henry Harris,post,,,,,,,,,
11-11-2012,Sarah Baker,post,,,,,,,,,
12-11-2012,Matthew Reyes,post,,,,,,,,,
12-11-2012,Frank Sims,post,,,,,,,,,
14-11-2012,Matthew Reyes,post,,,,,,,,,
14-11-2012,Edward Lawrence,post,,,,,,,,,
15-11-2012,Christina Hunt,post,,,,,,,,,
16-11-2012,Louis Torres,post,,,,,,,,,
19-11-2012,Christina Hunt,post,,,,,,,,,
22-11-2012,Jeffrey Long,join,,,,,,,,,
22-11-2012,Dennis Torres,post,,,,,,,,,
23-11-2012,Randy Watson,join,,,,,,,,,
23-11-2012,Lawrence King,post,,,,,,,,,
24-11-2012,Matthew Reyes,post,,,,,,,,,
24-11-2012,Victor Gomez,join,,,,,,,,,
24-11-2012,Larry Hayes,post,,,,,,,,,
25-11-2012,Matthew Reyes,post,,,,,,,,,
26-11-2012,Craig Porter,join,,,,,,,,,
26-11-2012,Larry Hayes,post,,,,,,,,,
27-11-2012,Gloria Cruz,post,,,,,,,,,
29-11-2012,Lillian Turner,post,,,,,,,,,
29-11-2012,Deborah Mccoy,post,,,,,,,,,
30-11-2012,Matthew Reyes,post,,,,,,,,,
30-11-2012,Adam Hall,join,,,,,,,,,
30-11-2012,Martin Taylor,post,,,,,,,,,
01-12-2012,Gloria Cruz,post,,,,,,,,,
03-12-2012,Denise Griffin,join,,,,,,,,,
03-12-2012,Adam Hall,post,,,,,,,,,
04-12-2012,Matthew Reyes,post,,,,,,,,,
07-12-2012,Joseph Jackson,join,,,,,,,,,
07-12-2012,Antonio Berry,post,,,,,,,,,
08-12-2012,Rebecca Morgan,join,,,,,,,,,
08-12-2012,Todd Morales,post,,,,,,,,,
09-12-2012,Lillian Turner,post,,,,,,,,,
10-12-2012,David Stevens,join,,,,,,,,,
10-12-2012,Raymond Freeman,post,,,,,,,,,
11-12-2012,Victor Gomez,post,,,,,,,,,
12-12-2012,Frank Sims,post,,,,,,,,,
12-12-2012,Janice Henderson,post,,,,,,,,,
15-12-2012,Christina Hunt,post,,,,,,,,,
15-12-2012,Jeremy Harrison,join,,,,,,,,,
15-12-2012,Emily Scott,post,,,,,,,,,
16-12-2012,David Stevens,post,,,,,,,,,
17-12-2012,Matthew Reyes,post,,,,,,,,,
19-12-2012,Gloria Cruz,post,,,,,,,,,
20-12-2012,Lillian Turner,post,,,,,,,,,
22-12-2012,Lillian Turner,post,,,,,,,,,
22-12-2012,Evelyn King,join,,,,,,,,,
22-12-2012,Elizabeth Harrison,post,,,,,,,,,
23-12-2012,Jean Henderson,post,,,,,,,,,
24-12-2012,Christina Hunt,post,,,,,,,,,
25-12-2012,Christina Hunt,post,,,,,,,,,
25-12-2012,Nancy Rice,join,,,,,,,,,
25-12-2012,Jean Henderson,post,,,,,,,,,
29-12-2012,Martin Walker,post,,,,,,,,,
29-12-2012,Cheryl Jordan,join,,,,,,,,,
29-12-2012,Edward Lawrence,post,,,,,,,,,
30-12-2012,Lillian Turner,post,,,,,,,,,
31-12-2012,Todd Morales,post,,,,,,,,,
01-01-2013,Matthew Reyes,post,,,,,,,,,
04-01-2013,Matthew Reyes,post,,,,,,,,,
04-01-2013,Angela Walker,join,,,,,,,,,
04-01-2013,Adam Gonzales,post,,,,,,,,,
05-01-2013,Deborah Mccoy,post,,,,,,,,,
06-01-2013,Rebecca Coleman,post,,,,,,,,,
07-01-2013,Frank Sims,post,,,,,,,,,
10-01-2013,Jean Adams,post,,,,,,,,,
12-01-2013,Gloria Cruz,post,,,,,,,,,
12-01-2013,Kathryn Price,join,,,,,,,,,
12-01-2013,Harry Harris,post,,,,,,,,,
14-01-2013,Gloria Cruz,post,,,,,,,,,
16-01-2013,Frank Sims,post,,,,,,,,,
20-01-2013,Matthew Reyes,post,,,,,,,,,
20-01-2013,Paul Jacobs,join,,,,,,,,,
20-01-2013,Teresa Morrison,post,,,,,,,,,
21-01-2013,Matthew Reyes,post,,,,,,,,,
21-01-2013,Christina Hunt,post,,,,,,,,,
22-01-2013,Rachel Richards,join,,,,,,,,,
22-01-2013,Jean Adams,post,,,,,,,,,
23-01-2013,Matthew Reyes,post,,,,,,,,,
25-01-2013,Matthew Reyes,post,,,,,,,,,
25-01-2013,Adam Hall,post,,,,,,,,,
26-01-2013,Lillian Turner,post,,,,,,,,,
26-01-2013,Anthony Watkins,join,,,,,,,,,
26-01-2013,Dennis Torres,post,,,,,,,,,
27-01-2013,Jeffrey Long,post,,,,,,,,,
28-01-2013,Todd Morales,post,,,,,,,,,
29-01-2013,Lillian Turner,post,,,,,,,,,
31-01-2013,Martin Walker,post,,,,,,,,,
02-02-2013,Matthew Reyes,post,,,,,,,,,
03-02-2013,Johnny Hart,join,,,,,,,,,
03-02-2013,Cheryl Jordan,post,,,,,,,,,
05-02-2013,Matthew Reyes,post,,,,,,,,,
06-02-2013,Anthony Watkins,post,,,,,,,,,
07-02-2013,Frank Sims,post,,,,,,,,,
07-02-2013,Lawrence King,post,,,,,,,,,
08-02-2013,Lillian Turner,post,,,,,,,,,
09-02-2013,Lillian Turner,post,,,,,,,,,
10-02-2013,Lillian Turner,post,,,,,,,,,
10-02-2013,Todd Morales,post,,,,,,,,,
11-02-2013,Matthew Reyes,post,,,,,,,,,
12-02-2013,Christina Hunt,post,,,,,,,,,
12-02-2013,Victor Gomez,post,,,,,,,,,
14-02-2013,Christina Hunt,post,,,,,,,,,
15-02-2013,Frank Sims,post,,,,,,,,,
16-02-2013,Martin Walker,post,,,,,,,,,
16-02-2013,Jeremy Harrison,post,,,,,,,,,
20-02-2013,Matthew Reyes,post,,,,,,,,,
23-02-2013,Matthew Reyes,post,,,,,,,,,
24-02-2013,Kevin Rogers,join,,,,,,,,,
24-02-2013,Philip Hamilton,post,,,,,,,,,
26-02-2013,Martin Walker,post,,,,,,,,,
26-02-2013,Joseph Jackson,post,,,,,,,,,
27-02-2013,Janet Murphy,join,,,,,,,,,
27-02-2013,Wanda Henderson,post,,,,,,,,,
28-02-2013,Frank Sims,post,,,,,,,,,
28-02-2013,Aaron Pierce,join,,,,,,,,,
28-02-2013,Carlos Greene,post,,,,,,,,,
01-03-2013,Matthew Reyes,post,,,,,,,,,
